<svg width="352" height="300" fill="none" xmlns="http://www.w3.org/2000/svg">
    <path opacity=".5" d="M-13-4c0-12.15 9.85-22 22-22h44c12.15 0 22 9.85 22 22v44c0 12.15-9.85 22-22 22H9c-12.15 0-22-9.85-22-22V-4zM-13 199.5a5.5 5.5 0 015.5-5.5h11a5.5 5.5 0 015.5 5.5v11a5.5 5.5 0 01-5.5 5.5h-11a5.5 5.5 0 01-5.5-5.5v-11zM31 199.5a5.5 5.5 0 015.5-5.5h11a5.5 5.5 0 015.5 5.5v11a5.5 5.5 0 01-5.5 5.5h-11a5.5 5.5 0 01-5.5-5.5v-11zM75 199.5a5.5 5.5 0 015.5-5.5h11a5.5 5.5 0 015.5 5.5v11a5.5 5.5 0 01-5.5 5.5h-11a5.5 5.5 0 01-5.5-5.5v-11zM119 199.5a5.5 5.5 0 015.5-5.5h11a5.5 5.5 0 015.5 5.5v11a5.5 5.5 0 01-5.5 5.5h-11a5.5 5.5 0 01-5.5-5.5v-11zM163 199.5a5.5 5.5 0 015.5-5.5h11a5.5 5.5 0 015.5 5.5v11a5.5 5.5 0 01-5.5 5.5h-11a5.5 5.5 0 01-5.5-5.5v-11zM207 199.5a5.5 5.5 0 015.5-5.5h11a5.5 5.5 0 015.5 5.5v11a5.5 5.5 0 01-5.5 5.5h-11a5.5 5.5 0 01-5.5-5.5v-11zM251 199.5a5.5 5.5 0 015.5-5.5h11a5.5 5.5 0 015.5 5.5v11a5.5 5.5 0 01-5.5 5.5h-11a5.5 5.5 0 01-5.5-5.5v-11zM295 199.5a5.5 5.5 0 015.5-5.5h11a5.5 5.5 0 015.5 5.5v11a5.5 5.5 0 01-5.5 5.5h-11a5.5 5.5 0 01-5.5-5.5v-11zM339 199.5a5.5 5.5 0 015.5-5.5h11a5.5 5.5 0 015.5 5.5v11a5.5 5.5 0 01-5.5 5.5h-11a5.5 5.5 0 01-5.5-5.5v-11z" fill="#00A77E"/>
    <path opacity=".2" d="M207 18c0-24.3 19.699-44 44-44h66c24.301 0 44 19.7 44 44s-19.699 44-44 44h-66c-24.301 0-44-19.7-44-44z" fill="#00A77E"/>
    <path d="M97-3.888c0-19.66 23.77-29.506 37.671-15.604l43.821 43.82C192.394 38.23 182.548 62 162.888 62h-43.821C106.88 62 97 52.12 97 39.933V-3.888zM361 303.888c0 19.66-23.77 29.506-37.671 15.604l-43.821-43.821C265.606 261.77 275.452 238 295.112 238h43.821C351.12 238 361 247.88 361 260.067v43.821z" fill="#00A77E"/>
    <path opacity=".2" d="M273 106.112c0-19.66 23.77-29.506 37.671-15.604l43.821 43.821C368.394 148.23 358.548 172 338.888 172h-43.821C282.88 172 273 162.12 273 149.933v-43.821z" fill="#00A77E"/>
    <path d="M75 128c0 24.301-19.7 44-44 44s-44-19.699-44-44S6.7 84 31 84s44 19.699 44 44z" fill="#00A77E"/>
    <path opacity=".5" d="M251 172c-24.301 0-44-19.699-44-44s19.699-44 44-44v88z" fill="#00A77E"/>
    <path fill-rule="evenodd" clip-rule="evenodd" d="M1.262 242.451a3.386 3.386 0 00-4.744 0l-7.146 6.971-2.372-2.511 7.145-6.971a6.77 6.77 0 019.489 0l3.587 3.5a3.386 3.386 0 004.744 0l3.588-3.5a6.77 6.77 0 019.488 0l3.587 3.5a3.386 3.386 0 004.744 0l3.587-3.5a6.77 6.77 0 019.488 0l3.588 3.5a3.386 3.386 0 004.744 0l3.587-3.5a6.77 6.77 0 019.489 0L75 246.911l-2.372 2.511-7.145-6.971a3.386 3.386 0 00-4.745 0l-3.587 3.5a6.772 6.772 0 01-9.488 0l-3.587-3.5a3.386 3.386 0 00-4.745 0l-3.587 3.5a6.772 6.772 0 01-9.488 0l-3.587-3.5a3.386 3.386 0 00-4.745 0l-3.587 3.5a6.772 6.772 0 01-9.488 0l-3.588-3.5zm0 19.144a3.386 3.386 0 00-4.744 0l-7.146 6.971-2.372-2.511 7.145-6.971a6.772 6.772 0 019.489 0l3.587 3.5a3.386 3.386 0 004.744 0l3.588-3.5a6.772 6.772 0 019.488 0l3.587 3.5a3.386 3.386 0 004.744 0l3.587-3.5a6.772 6.772 0 019.488 0l3.588 3.5a3.386 3.386 0 004.744 0l3.587-3.5a6.772 6.772 0 019.489 0L75 266.055l-2.372 2.511-7.145-6.971a3.386 3.386 0 00-4.745 0l-3.587 3.5a6.772 6.772 0 01-9.488 0l-3.587-3.5a3.386 3.386 0 00-4.745 0l-3.587 3.5a6.772 6.772 0 01-9.488 0l-3.587-3.5a3.386 3.386 0 00-4.745 0l-3.587 3.5a6.772 6.772 0 01-9.488 0l-3.588-3.5zm-4.744 19.145a3.386 3.386 0 014.744 0l3.587 3.5a6.772 6.772 0 009.488 0l3.587-3.5a3.386 3.386 0 014.745 0l3.587 3.5a6.772 6.772 0 009.488 0l3.587-3.5a3.386 3.386 0 014.744 0l3.588 3.5a6.772 6.772 0 009.488 0l3.587-3.5a3.386 3.386 0 014.745 0l7.145 6.971L75 285.2l-7.145-6.971a6.772 6.772 0 00-9.489 0l-3.587 3.5a3.386 3.386 0 01-4.744 0l-3.587-3.5a6.772 6.772 0 00-9.489 0l-3.587 3.5a3.386 3.386 0 01-4.744 0l-3.587-3.5a6.772 6.772 0 00-9.489 0l-3.587 3.5a3.386 3.386 0 01-4.744 0l-3.587-3.5a6.772 6.772 0 00-9.489 0L-13 285.2l2.372 2.511 7.146-6.971zm4.744 19.144a3.386 3.386 0 00-4.745 0l-7.145 6.971-2.372-2.511 7.145-6.971a6.772 6.772 0 019.489 0l3.587 3.5a3.386 3.386 0 004.744 0l3.588-3.5a6.772 6.772 0 019.488 0l3.587 3.5a3.386 3.386 0 004.744 0l3.587-3.5a6.772 6.772 0 019.488 0l3.588 3.5a3.386 3.386 0 004.744 0l3.587-3.5a6.772 6.772 0 019.489 0L75 304.344l-2.372 2.511-7.145-6.971a3.386 3.386 0 00-4.745 0l-3.587 3.5a6.772 6.772 0 01-9.488 0l-3.587-3.5a3.386 3.386 0 00-4.745 0l-3.587 3.5a6.772 6.772 0 01-9.488 0l-3.587-3.5a3.386 3.386 0 00-4.745 0l-3.587 3.5a6.772 6.772 0 01-9.488 0l-3.588-3.5zm-4.745 19.145a3.386 3.386 0 014.745 0l3.587 3.5a6.772 6.772 0 009.488 0l3.587-3.5a3.386 3.386 0 014.745 0l3.587 3.5a6.772 6.772 0 009.488 0l3.587-3.5a3.386 3.386 0 014.744 0l3.588 3.5a6.772 6.772 0 009.488 0l3.587-3.5a3.386 3.386 0 014.745 0L72.627 326 75 323.489l-7.145-6.971a6.772 6.772 0 00-9.489 0l-3.587 3.5a3.386 3.386 0 01-4.744 0l-3.587-3.5a6.772 6.772 0 00-9.489 0l-3.587 3.5a3.386 3.386 0 01-4.744 0l-3.587-3.5a6.772 6.772 0 00-9.489 0l-3.587 3.5a3.386 3.386 0 01-4.744 0l-3.587-3.5a6.772 6.772 0 00-9.489 0L-13 323.489l2.372 2.511 7.146-6.971z" fill="#00A77E"/>
</svg>
