<svg width="320" height="106" fill="none" xmlns="http://www.w3.org/2000/svg">
    <path opacity=".2" d="M100 88c0-24.3 19.699-44 44-44h66c24.301 0 44 19.7 44 44 0 24.301-19.699 44-44 44h-66c-24.301 0-44-19.699-44-44z" fill="#00A77E"/>
    <path opacity=".5" d="M-4 5.5A5.5 5.5 0 011.5 0h11A5.5 5.5 0 0118 5.5v11a5.5 5.5 0 01-5.5 5.5h-11A5.5 5.5 0 01-4 16.5v-11zM40 5.5A5.5 5.5 0 0145.5 0h11A5.5 5.5 0 0162 5.5v11a5.5 5.5 0 01-5.5 5.5h-11a5.5 5.5 0 01-5.5-5.5v-11zM84 5.5A5.5 5.5 0 0189.5 0h11a5.5 5.5 0 015.5 5.5v11a5.5 5.5 0 01-5.5 5.5h-11a5.5 5.5 0 01-5.5-5.5v-11zM128 5.5a5.5 5.5 0 015.5-5.5h11a5.5 5.5 0 015.5 5.5v11a5.5 5.5 0 01-5.5 5.5h-11a5.5 5.5 0 01-5.5-5.5v-11zM172 5.5a5.5 5.5 0 015.5-5.5h11a5.5 5.5 0 015.5 5.5v11a5.5 5.5 0 01-5.5 5.5h-11a5.5 5.5 0 01-5.5-5.5v-11zM213 5.5a5.5 5.5 0 015.5-5.5h11a5.5 5.5 0 015.5 5.5v11a5.5 5.5 0 01-5.5 5.5h-11a5.5 5.5 0 01-5.5-5.5v-11zM257 5.5a5.5 5.5 0 015.5-5.5h11a5.5 5.5 0 015.5 5.5v11a5.5 5.5 0 01-5.5 5.5h-11a5.5 5.5 0 01-5.5-5.5v-11zM295 5.5a5.5 5.5 0 015.5-5.5h11a5.5 5.5 0 015.5 5.5v11a5.5 5.5 0 01-5.5 5.5h-11a5.5 5.5 0 01-5.5-5.5v-11z" fill="#00A77E"/>
    <path d="M361 109.888c0 19.66-23.77 29.506-37.671 15.604l-43.821-43.82C265.606 67.77 275.452 44 295.112 44h43.821C351.12 44 361 53.88 361 66.067v43.821z" fill="#00A77E"/>
    <path fill-rule="evenodd" clip-rule="evenodd" d="M10.261 48.45a3.386 3.386 0 00-4.743 0l-7.146 6.972L-4 52.91l7.145-6.971a6.771 6.771 0 019.489 0l3.587 3.5a3.386 3.386 0 004.744 0l3.587-3.5a6.771 6.771 0 019.489 0l3.587 3.5a3.386 3.386 0 004.744 0l3.587-3.5a6.771 6.771 0 019.488 0l3.588 3.5a3.386 3.386 0 004.744 0l3.587-3.5a6.771 6.771 0 019.489 0L84 52.91l-2.372 2.512-7.145-6.971a3.386 3.386 0 00-4.745 0l-3.587 3.5a6.771 6.771 0 01-9.488 0l-3.587-3.5a3.386 3.386 0 00-4.745 0l-3.587 3.5a6.771 6.771 0 01-9.488 0l-3.587-3.5a3.386 3.386 0 00-4.745 0l-3.587 3.5a6.771 6.771 0 01-9.488 0l-3.588-3.5zm0 19.145a3.386 3.386 0 00-4.743 0l-7.146 6.971L-4 72.056l7.145-6.972a6.771 6.771 0 019.489 0l3.587 3.5a3.386 3.386 0 004.744 0l3.587-3.5a6.771 6.771 0 019.489 0l3.587 3.5a3.386 3.386 0 004.744 0l3.587-3.5a6.771 6.771 0 019.488 0l3.588 3.5a3.386 3.386 0 004.744 0l3.587-3.5a6.771 6.771 0 019.489 0L84 72.055l-2.372 2.511-7.145-6.97a3.386 3.386 0 00-4.745 0l-3.587 3.5a6.771 6.771 0 01-9.488 0l-3.587-3.5a3.386 3.386 0 00-4.745 0l-3.587 3.5a6.771 6.771 0 01-9.488 0l-3.587-3.5a3.386 3.386 0 00-4.745 0l-3.587 3.5a6.771 6.771 0 01-9.488 0l-3.588-3.5zM5.518 86.74a3.386 3.386 0 014.744 0l3.587 3.5a6.771 6.771 0 009.488 0l3.587-3.5a3.386 3.386 0 014.745 0l3.587 3.5a6.771 6.771 0 009.488 0l3.587-3.5a3.386 3.386 0 014.744 0l3.588 3.5a6.771 6.771 0 009.488 0l3.588-3.5a3.386 3.386 0 014.743 0l7.146 6.97L84 91.2l-7.145-6.971a6.771 6.771 0 00-9.489 0l-3.587 3.5a3.386 3.386 0 01-4.744 0l-3.587-3.5a6.771 6.771 0 00-9.489 0l-3.587 3.5a3.386 3.386 0 01-4.744 0l-3.587-3.5a6.771 6.771 0 00-9.488 0l-3.588 3.5a3.386 3.386 0 01-4.744 0l-3.588-3.5a6.771 6.771 0 00-9.488 0L-4 91.199l2.372 2.512 7.146-6.971zm4.744 19.144a3.386 3.386 0 00-4.745 0l-7.145 6.971L-4 110.344l7.145-6.971a6.772 6.772 0 019.489 0l3.587 3.5a3.386 3.386 0 004.744 0l3.587-3.5a6.772 6.772 0 019.489 0l3.587 3.5a3.386 3.386 0 004.744 0l3.587-3.5a6.772 6.772 0 019.488 0l3.588 3.5a3.386 3.386 0 004.744 0l3.587-3.5a6.772 6.772 0 019.489 0L84 110.344l-2.372 2.511-7.145-6.971a3.386 3.386 0 00-4.745 0l-3.587 3.5a6.772 6.772 0 01-9.488 0l-3.587-3.5a3.386 3.386 0 00-4.745 0l-3.587 3.5a6.772 6.772 0 01-9.488 0l-3.587-3.5a3.386 3.386 0 00-4.745 0l-3.587 3.5a6.772 6.772 0 01-9.488 0l-3.588-3.5zm-4.745 19.145a3.386 3.386 0 014.744 0l3.588 3.5a6.772 6.772 0 009.488 0l3.587-3.5a3.386 3.386 0 014.745 0l3.587 3.5a6.772 6.772 0 009.488 0l3.587-3.5a3.386 3.386 0 014.744 0l3.588 3.5a6.772 6.772 0 009.488 0l3.588-3.5a3.386 3.386 0 014.743 0L81.629 132 84 129.489l-7.145-6.971a6.772 6.772 0 00-9.489 0l-3.587 3.5a3.386 3.386 0 01-4.744 0l-3.587-3.5a6.772 6.772 0 00-9.489 0l-3.587 3.5a3.386 3.386 0 01-4.744 0l-3.587-3.5a6.772 6.772 0 00-9.488 0l-3.588 3.5a3.386 3.386 0 01-4.744 0l-3.588-3.5a6.772 6.772 0 00-9.488 0L-4 129.489-1.628 132l7.146-6.971z" fill="#00A77E"/>
</svg>
