<svg width="100" height="100" fill="none" xmlns="http://www.w3.org/2000/svg">
    <path opacity=".2" d="M0 25.127C0 2.786 27.011-8.403 42.808 7.395l49.797 49.797C108.402 72.989 97.214 100 74.873 100H25.076C11.227 100 0 88.773 0 74.924V25.127z" fill="#00A77E"/>
    <path clip-rule="evenodd" d="M50 68c13.254 0 24-11.06 24-24.706V16H26v27.294C26 56.94 36.746 68 50 68z" stroke="#00A77E" stroke-width="2" stroke-linejoin="round"/>
    <path clip-rule="evenodd" d="M26 50V30H10c0 13.334 8 20 16 20zM74 50V30h16c0 13.334-8 20-16 20z" stroke="#00A77E" stroke-width="2" stroke-linecap="round" stroke-linejoin="round"/>
    <path d="M50 72v8" stroke="#00A77E" stroke-width="2" stroke-linecap="round" stroke-linejoin="round"/>
    <path clip-rule="evenodd" d="M32 92l7.38-12h20.706L68 92H32z" stroke="#00A77E" stroke-width="2" stroke-linejoin="round"/>
    <path d="M51.877 44.06c0-.32 1.27-6.186 4.554-6.506.954-.214-2.012 3.626-.847 6.185.932 2.048 3.99 2.062 5.402 1.813-.53 1.28-2.796 3.456-7.626 1.92-4.202 1.03-12.436-.128-11.758-13.011-.389-.427-1.653-1.024-3.602 0 .318-.156-.424-5.012 5.932-6.185 1.412-1.707 5.275-4.927 9.428-4.16 5.19.96 6.673 3.733 6.99 5.76.813.39 2.48 1.47 2.649 2.665.03.214-.636.782-1.06.427 0 .426-.465 1.28-2.33 1.28-.741.497-2.351 1.493-2.86 1.493-.508 0-1.977-.142-2.648-.213-.282.888-1.186 2.772-2.542 3.199-1.113.35-1.445.437-1.49.437-.216.323-.717.971-1.053 1.056-.423.107-.953-.533-.847-1.493-.007.075-1.377 4.906 3.708 5.332z" fill="#00A77E"/>
</svg>
