<svg width="55" height="76" fill="none" xmlns="http://www.w3.org/2000/svg">
    <mask id="a" style="mask-type:alpha" maskUnits="userSpaceOnUse" x="0" y="0" width="55" height="76">
        <path fill="#D9D9D9" d="M0 0h55v76H0z"/>
    </mask>
    <g mask="url(#a)">
        <path d="M28.082 70.187c-9.478 9.478-25.685 2.765-25.685-10.64V17.295c0-13.405 16.207-20.118 25.685-10.64L49.21 27.783c5.876 5.875 5.876 15.402 0 21.278L28.082 70.187z" fill="#3772FF"/>
    </g>
</svg>
