<svg width="352" height="469" fill="none" xmlns="http://www.w3.org/2000/svg">
    <mask id="a" style="mask-type:alpha" maskUnits="userSpaceOnUse" x="0" y="0" width="352" height="469">
        <rect width="352" height="469" rx="16" fill="white"/>
    </mask>
    <g mask="url(#a)" fill="#3772FF">
        <g opacity=".1">
            <path opacity=".5" d="M-48-18.666c0-11.034 8.944-19.978 19.978-19.978h39.955c11.034 0 19.978 8.944 19.978 19.978v39.955c0 11.034-8.944 19.978-19.978 19.978h-39.955C-39.056 41.267-48 32.323-48 21.289v-39.955zM-8.043 166.128a4.994 4.994 0 014.994-4.994h9.99a4.994 4.994 0 014.994 4.994v9.989a4.994 4.994 0 01-4.995 4.994h-9.989a4.994 4.994 0 01-4.994-4.994v-9.989zM31.91 166.128a4.994 4.994 0 014.995-4.994h9.989a4.994 4.994 0 014.994 4.994v9.989a4.994 4.994 0 01-4.994 4.994h-9.99a4.994 4.994 0 01-4.994-4.994v-9.989zM71.867 166.128a4.994 4.994 0 014.995-4.994h9.989a4.994 4.994 0 014.994 4.994v9.989a4.994 4.994 0 01-4.995 4.994h-9.988a4.994 4.994 0 01-4.995-4.994v-9.989zM111.82 166.128a4.994 4.994 0 014.995-4.994h9.989a4.994 4.994 0 014.994 4.994v9.989a4.994 4.994 0 01-4.994 4.994h-9.989a4.994 4.994 0 01-4.995-4.994v-9.989zM151.777 166.128a4.994 4.994 0 014.995-4.994h9.989a4.994 4.994 0 014.994 4.994v9.989a4.994 4.994 0 01-4.994 4.994h-9.989a4.994 4.994 0 01-4.995-4.994v-9.989zM191.734 166.128a4.994 4.994 0 014.995-4.994h9.989a4.994 4.994 0 014.994 4.994v9.989a4.994 4.994 0 01-4.994 4.994h-9.989a4.994 4.994 0 01-4.995-4.994v-9.989zM231.688 166.128a4.994 4.994 0 014.994-4.994h9.989a4.994 4.994 0 014.994 4.994v9.989a4.994 4.994 0 01-4.994 4.994h-9.989a4.994 4.994 0 01-4.994-4.994v-9.989zM271.645 166.128a4.994 4.994 0 014.994-4.994h9.989a4.994 4.994 0 014.994 4.994v9.989a4.994 4.994 0 01-4.994 4.994h-9.989a4.994 4.994 0 01-4.994-4.994v-9.989z"/>
            <path opacity=".2" d="M151.777 1.312c0-22.067 17.889-39.956 39.956-39.956h59.933c22.067 0 39.956 17.889 39.956 39.956 0 22.066-17.889 39.955-39.956 39.955h-59.933c-22.067 0-39.956-17.889-39.956-39.955zM51.89 241.045c0-22.067 17.89-39.956 39.956-39.956h59.933c22.067 0 39.956 17.889 39.956 39.956 0 22.066-17.889 39.955-39.956 39.955H91.846c-22.067 0-39.955-17.889-39.955-39.955z"/>
            <path d="M51.89-18.565c0-17.853 21.585-26.793 34.21-14.17l39.792 39.793c12.624 12.624 3.683 34.209-14.169 34.209H71.93c-11.068 0-20.04-8.972-20.04-20.039v-39.793zM291.621 260.921c0 17.853-21.585 26.793-34.208 14.17l-39.793-39.793c-12.624-12.624-3.684-34.209 14.169-34.209h39.793c11.067 0 20.039 8.972 20.039 20.039v39.793z"/>
            <path opacity=".2" d="M211.711 81.324c0-17.853 21.585-26.794 34.209-14.17l39.793 39.793c12.623 12.624 3.683 34.209-14.17 34.209H231.75c-11.067 0-20.039-8.972-20.039-20.039V81.324z"/>
            <path d="M31.911 101.2c0 22.067-17.889 39.956-39.956 39.956C-30.11 141.156-48 123.267-48 101.2c0-22.067 17.889-39.955 39.956-39.955 22.066 0 39.955 17.888 39.955 39.955z"/>
            <path opacity=".5" d="M191.733 141.156c-22.067 0-39.956-17.889-39.956-39.956 0-22.067 17.889-39.955 39.956-39.955v79.911z"/>
            <path opacity=".2" fill-rule="evenodd" clip-rule="evenodd" d="M64.841 65.286a3.074 3.074 0 00-4.308 0l-6.488 6.33-2.154-2.28 6.488-6.33a6.149 6.149 0 018.616 0l3.258 3.178a3.074 3.074 0 004.308 0l3.258-3.178a6.149 6.149 0 018.615 0l3.258 3.178a3.074 3.074 0 004.308 0l3.258-3.178a6.15 6.15 0 018.616 0l3.257 3.178a3.074 3.074 0 004.308 0l3.258-3.178a6.149 6.149 0 018.616 0l6.489 6.33-2.154 2.28-6.489-6.33a3.075 3.075 0 00-4.308 0l-3.258 3.178a6.149 6.149 0 01-8.616 0l-3.257-3.178a3.075 3.075 0 00-4.308 0l-3.258 3.178a6.149 6.149 0 01-8.616 0l-3.257-3.178a3.075 3.075 0 00-4.309 0l-3.257 3.178a6.149 6.149 0 01-8.616 0l-3.258-3.178zm0 17.385a3.074 3.074 0 00-4.308 0l-6.488 6.33-2.154-2.28 6.488-6.33a6.149 6.149 0 018.616 0l3.258 3.178a3.074 3.074 0 004.308 0l3.258-3.178a6.149 6.149 0 018.615 0l3.258 3.178a3.074 3.074 0 004.308 0l3.258-3.178a6.15 6.15 0 018.616 0l3.257 3.178a3.075 3.075 0 004.308 0l3.258-3.178a6.15 6.15 0 018.616 0l6.489 6.33-2.154 2.28-6.489-6.33a3.075 3.075 0 00-4.308 0l-3.258 3.178a6.15 6.15 0 01-8.616 0l-3.257-3.178a3.075 3.075 0 00-4.308 0l-3.258 3.178a6.149 6.149 0 01-8.616 0l-3.257-3.178a3.075 3.075 0 00-4.309 0l-3.257 3.178a6.149 6.149 0 01-8.616 0l-3.258-3.178zm-4.308 17.385a3.074 3.074 0 014.308 0l3.258 3.178a6.15 6.15 0 008.616 0l3.257-3.178a3.074 3.074 0 014.309 0l3.257 3.178a6.15 6.15 0 008.616 0l3.258-3.178a3.074 3.074 0 014.308 0l3.257 3.178a6.15 6.15 0 008.616 0l3.258-3.178a3.074 3.074 0 014.308 0l6.489 6.33 2.154-2.28-6.489-6.33a6.15 6.15 0 00-8.616 0l-3.258 3.178a3.075 3.075 0 01-4.308 0l-3.257-3.178a6.15 6.15 0 00-8.616 0L94 100.954a3.075 3.075 0 01-4.308 0l-3.258-3.178a6.149 6.149 0 00-8.615 0l-3.258 3.178a3.075 3.075 0 01-4.308 0l-3.258-3.178a6.149 6.149 0 00-8.616 0l-6.488 6.33 2.154 2.28 6.488-6.33zm4.308 17.385a3.073 3.073 0 00-4.308 0l-6.488 6.33-2.154-2.28 6.488-6.331a6.15 6.15 0 018.616 0l3.258 3.179a3.075 3.075 0 004.308 0l3.258-3.179a6.15 6.15 0 018.615 0l3.258 3.179a3.075 3.075 0 004.308 0l3.258-3.179a6.15 6.15 0 018.616 0l3.257 3.179a3.075 3.075 0 004.308 0l3.258-3.179a6.15 6.15 0 018.616 0l6.489 6.331-2.154 2.28-6.489-6.33a3.073 3.073 0 00-4.308 0l-3.258 3.178a6.15 6.15 0 01-8.616 0l-3.257-3.178a3.073 3.073 0 00-4.308 0l-3.258 3.178a6.15 6.15 0 01-8.616 0l-3.257-3.178a3.073 3.073 0 00-4.309 0l-3.257 3.178a6.15 6.15 0 01-8.616 0l-3.258-3.178zm-4.308 17.384a3.075 3.075 0 014.308 0l3.258 3.179a6.15 6.15 0 008.616 0l3.257-3.179a3.075 3.075 0 014.309 0l3.257 3.179a6.15 6.15 0 008.616 0l3.258-3.179a3.075 3.075 0 014.308 0l3.257 3.179a6.15 6.15 0 008.616 0l3.258-3.179a3.075 3.075 0 014.308 0l6.489 6.331 2.154-2.28-6.489-6.331a6.15 6.15 0 00-8.616 0l-3.258 3.178a3.073 3.073 0 01-4.308 0l-3.257-3.178a6.15 6.15 0 00-8.616 0L94 135.723a3.073 3.073 0 01-4.308 0l-3.258-3.178a6.15 6.15 0 00-8.615 0l-3.258 3.178a3.073 3.073 0 01-4.308 0l-3.258-3.178a6.15 6.15 0 00-8.616 0l-6.488 6.331 2.154 2.28 6.488-6.331z"/>
            <path fill-rule="evenodd" clip-rule="evenodd" d="M-35.05 205.131a3.073 3.073 0 00-4.307 0l-6.489 6.33-2.154-2.28 6.489-6.331a6.15 6.15 0 018.616 0l3.257 3.179a3.075 3.075 0 004.308 0l3.258-3.179a6.15 6.15 0 018.616 0l3.258 3.179a3.075 3.075 0 004.307 0l3.258-3.179a6.15 6.15 0 018.616 0l3.258 3.179a3.075 3.075 0 004.308 0l3.257-3.179a6.15 6.15 0 018.616 0l6.489 6.331-2.154 2.28-6.489-6.33a3.073 3.073 0 00-4.308 0l-3.257 3.178a6.15 6.15 0 01-8.616 0l-3.258-3.178a3.073 3.073 0 00-4.308 0l-3.258 3.178a6.15 6.15 0 01-8.615 0l-3.258-3.178a3.073 3.073 0 00-4.308 0l-3.258 3.178a6.15 6.15 0 01-8.616 0l-3.257-3.178zm0 17.384a3.075 3.075 0 00-4.307 0l-6.489 6.331-2.154-2.28 6.489-6.331a6.15 6.15 0 018.616 0l3.257 3.178a3.073 3.073 0 004.308 0l3.258-3.178a6.15 6.15 0 018.616 0l3.258 3.178a3.073 3.073 0 004.307 0l3.258-3.178a6.15 6.15 0 018.616 0l3.258 3.178a3.073 3.073 0 004.308 0l3.257-3.178a6.15 6.15 0 018.616 0l6.489 6.331-2.154 2.28-6.489-6.331a3.075 3.075 0 00-4.308 0l-3.257 3.179a6.15 6.15 0 01-8.616 0l-3.258-3.179a3.075 3.075 0 00-4.308 0l-3.258 3.179a6.15 6.15 0 01-8.615 0l-3.258-3.179a3.075 3.075 0 00-4.308 0l-3.258 3.179a6.15 6.15 0 01-8.616 0l-3.257-3.179zm-4.307 17.385a3.075 3.075 0 014.308 0l3.257 3.178a6.148 6.148 0 008.616 0l3.258-3.178a3.075 3.075 0 014.308 0l3.258 3.178a6.148 6.148 0 008.615 0l3.258-3.178a3.075 3.075 0 014.308 0l3.258 3.178a6.148 6.148 0 008.616 0l3.257-3.178a3.075 3.075 0 014.308 0l6.489 6.331 2.154-2.281-6.489-6.33a6.148 6.148 0 00-8.616 0l-3.257 3.178a3.075 3.075 0 01-4.308 0l-3.258-3.178a6.148 6.148 0 00-8.616 0l-3.258 3.178a3.075 3.075 0 01-4.307 0l-3.258-3.178a6.148 6.148 0 00-8.616 0l-3.258 3.178a3.075 3.075 0 01-4.308 0l-3.257-3.178a6.148 6.148 0 00-8.616 0L-48 243.95l2.154 2.281 6.489-6.331zm4.308 17.385a3.075 3.075 0 00-4.308 0l-6.489 6.33-2.154-2.28 6.489-6.33a6.148 6.148 0 018.616 0l3.257 3.178a3.075 3.075 0 004.308 0l3.258-3.178a6.148 6.148 0 018.616 0l3.258 3.178a3.075 3.075 0 004.307 0l3.258-3.178a6.148 6.148 0 018.616 0l3.258 3.178a3.075 3.075 0 004.308 0l3.257-3.178a6.148 6.148 0 018.616 0l6.489 6.33-2.154 2.28-6.489-6.33a3.075 3.075 0 00-4.308 0l-3.257 3.178a6.148 6.148 0 01-8.616 0l-3.258-3.178a3.075 3.075 0 00-4.308 0l-3.258 3.178a6.148 6.148 0 01-8.615 0l-3.258-3.178a3.075 3.075 0 00-4.308 0l-3.258 3.178a6.148 6.148 0 01-8.616 0l-3.257-3.178zm-4.308 17.385a3.073 3.073 0 014.308 0l3.257 3.178a6.15 6.15 0 008.616 0l3.258-3.178a3.073 3.073 0 014.308 0l3.258 3.178a6.15 6.15 0 008.615 0l3.258-3.178a3.073 3.073 0 014.308 0l3.258 3.178a6.15 6.15 0 008.616 0l3.257-3.178a3.073 3.073 0 014.308 0l6.489 6.33 2.154-2.28-6.489-6.331a6.15 6.15 0 00-8.616 0l-3.257 3.179a3.075 3.075 0 01-4.308 0l-3.258-3.179a6.15 6.15 0 00-8.616 0l-3.258 3.179a3.075 3.075 0 01-4.307 0l-3.258-3.179a6.15 6.15 0 00-8.616 0l-3.258 3.179a3.075 3.075 0 01-4.308 0l-3.257-3.179a6.15 6.15 0 00-8.616 0L-48 278.72l2.154 2.28 6.489-6.33z"/>
        </g>
        <g opacity=".1">
            <path opacity=".5" d="M312-18.666c0-11.034 8.944-19.978 19.978-19.978h39.955c11.034 0 19.978 8.944 19.978 19.978v39.955c0 11.034-8.944 19.978-19.978 19.978h-39.955c-11.034 0-19.978-8.944-19.978-19.978v-39.955zM312 166.128a4.994 4.994 0 014.994-4.994h9.989a4.994 4.994 0 014.995 4.994v9.989a4.994 4.994 0 01-4.995 4.994h-9.989a4.994 4.994 0 01-4.994-4.994v-9.989zM351.957 166.128a4.994 4.994 0 014.994-4.994h9.989a4.994 4.994 0 014.995 4.994v9.989a4.994 4.994 0 01-4.995 4.994h-9.989a4.994 4.994 0 01-4.994-4.994v-9.989z"/>
            <path d="M391.911 101.2c0 22.067-17.889 39.956-39.956 39.956-22.066 0-39.955-17.889-39.955-39.956 0-22.067 17.889-39.955 39.955-39.955 22.067 0 39.956 17.888 39.956 39.955z"/>
            <path fill-rule="evenodd" clip-rule="evenodd" d="M324.951 205.131a3.073 3.073 0 00-4.308 0l-6.489 6.33-2.154-2.28 6.489-6.331a6.15 6.15 0 018.616 0l3.257 3.179a3.075 3.075 0 004.308 0l3.258-3.179a6.15 6.15 0 018.616 0l3.258 3.179a3.074 3.074 0 004.307 0l3.258-3.179a6.15 6.15 0 018.616 0l3.258 3.179a3.075 3.075 0 004.308 0l3.257-3.179a6.15 6.15 0 018.616 0l6.489 6.331-2.154 2.28-6.489-6.33a3.073 3.073 0 00-4.308 0l-3.257 3.178a6.15 6.15 0 01-8.616 0l-3.258-3.178a3.073 3.073 0 00-4.308 0l-3.258 3.178a6.149 6.149 0 01-8.615 0l-3.258-3.178a3.073 3.073 0 00-4.308 0l-3.258 3.178a6.15 6.15 0 01-8.616 0l-3.257-3.178zm0 17.384a3.075 3.075 0 00-4.308 0l-6.489 6.331-2.154-2.28 6.489-6.331a6.15 6.15 0 018.616 0l3.257 3.178a3.073 3.073 0 004.308 0l3.258-3.178a6.15 6.15 0 018.616 0l3.258 3.178a3.072 3.072 0 004.307 0l3.258-3.178a6.15 6.15 0 018.616 0l3.258 3.178a3.073 3.073 0 004.308 0l3.257-3.178a6.15 6.15 0 018.616 0l6.489 6.331-2.154 2.28-6.489-6.331a3.075 3.075 0 00-4.308 0l-3.257 3.179a6.15 6.15 0 01-8.616 0l-3.258-3.179a3.075 3.075 0 00-4.308 0l-3.258 3.179a6.149 6.149 0 01-8.615 0l-3.258-3.179a3.075 3.075 0 00-4.308 0l-3.258 3.179a6.15 6.15 0 01-8.616 0l-3.257-3.179zm-4.308 17.385a3.075 3.075 0 014.308 0l3.257 3.178a6.148 6.148 0 008.616 0l3.258-3.178a3.075 3.075 0 014.308 0l3.258 3.178a6.147 6.147 0 008.615 0l3.258-3.178a3.075 3.075 0 014.308 0l3.258 3.178a6.148 6.148 0 008.616 0l3.257-3.178a3.075 3.075 0 014.308 0l6.489 6.331 2.154-2.281-6.489-6.33a6.148 6.148 0 00-8.616 0l-3.257 3.178a3.075 3.075 0 01-4.308 0l-3.258-3.178a6.148 6.148 0 00-8.616 0l-3.258 3.178a3.074 3.074 0 01-4.307 0l-3.258-3.178a6.148 6.148 0 00-8.616 0l-3.258 3.178a3.075 3.075 0 01-4.308 0l-3.257-3.178a6.148 6.148 0 00-8.616 0L312 243.95l2.154 2.281 6.489-6.331zm4.308 17.385a3.075 3.075 0 00-4.308 0l-6.489 6.33-2.154-2.28 6.489-6.33a6.148 6.148 0 018.616 0l3.257 3.178a3.075 3.075 0 004.308 0l3.258-3.178a6.148 6.148 0 018.616 0l3.258 3.178a3.074 3.074 0 004.307 0l3.258-3.178a6.148 6.148 0 018.616 0l3.258 3.178a3.075 3.075 0 004.308 0l3.257-3.178a6.148 6.148 0 018.616 0l6.489 6.33-2.154 2.28-6.489-6.33a3.075 3.075 0 00-4.308 0l-3.257 3.178a6.148 6.148 0 01-8.616 0l-3.258-3.178a3.075 3.075 0 00-4.308 0l-3.258 3.178a6.147 6.147 0 01-8.615 0l-3.258-3.178a3.075 3.075 0 00-4.308 0l-3.258 3.178a6.148 6.148 0 01-8.616 0l-3.257-3.178zm-4.308 17.385a3.073 3.073 0 014.308 0l3.257 3.178a6.15 6.15 0 008.616 0l3.258-3.178a3.073 3.073 0 014.308 0l3.258 3.178a6.149 6.149 0 008.615 0l3.258-3.178a3.073 3.073 0 014.308 0l3.258 3.178a6.15 6.15 0 008.616 0l3.257-3.178a3.073 3.073 0 014.308 0l6.489 6.33 2.154-2.28-6.489-6.331a6.15 6.15 0 00-8.616 0l-3.257 3.179a3.075 3.075 0 01-4.308 0l-3.258-3.179a6.15 6.15 0 00-8.616 0l-3.258 3.179a3.074 3.074 0 01-4.307 0l-3.258-3.179a6.15 6.15 0 00-8.616 0l-3.258 3.179a3.075 3.075 0 01-4.308 0l-3.257-3.179a6.15 6.15 0 00-8.616 0L312 278.72l2.154 2.28 6.489-6.33z"/>
        </g>
        <g opacity=".1">
            <path opacity=".5" d="M-48 320.978C-48 309.944-39.056 301-28.022 301h39.955c11.034 0 19.978 8.944 19.978 19.978v39.955c0 11.034-8.944 19.978-19.978 19.978h-39.955c-11.034 0-19.978-8.944-19.978-19.978v-39.955z"/>
            <path opacity=".2" d="M151.777 340.955c0-22.066 17.889-39.955 39.956-39.955h59.933c22.067 0 39.956 17.889 39.956 39.955 0 22.067-17.889 39.956-39.956 39.956h-59.933c-22.067 0-39.956-17.889-39.956-39.956z"/>
            <path d="M51.89 321.079c0-17.853 21.585-26.793 34.21-14.17l39.792 39.793c12.624 12.624 3.683 34.209-14.169 34.209H71.93c-11.068 0-20.04-8.972-20.04-20.039v-39.793z"/>
            <path opacity=".2" d="M211.711 420.968c0-17.853 21.585-26.794 34.209-14.17l39.793 39.793c12.623 12.624 3.683 34.209-14.17 34.209H231.75c-11.067 0-20.039-8.972-20.039-20.039v-39.793z"/>
            <path d="M31.911 440.844c0 22.067-17.889 39.956-39.956 39.956C-30.11 480.8-48 462.911-48 440.844c0-22.067 17.889-39.955 39.956-39.955 22.066 0 39.955 17.888 39.955 39.955z"/>
            <path opacity=".5" d="M191.733 480.8c-22.067 0-39.956-17.889-39.956-39.956 0-22.067 17.889-39.955 39.956-39.955V480.8z"/>
            <path opacity=".2" fill-rule="evenodd" clip-rule="evenodd" d="M64.841 404.93a3.075 3.075 0 00-4.308 0l-6.488 6.331-2.154-2.281 6.488-6.33a6.15 6.15 0 018.616 0l3.258 3.178a3.073 3.073 0 004.308 0l3.258-3.178a6.15 6.15 0 018.615 0l3.258 3.178a3.073 3.073 0 004.308 0l3.258-3.178a6.15 6.15 0 018.616 0l3.257 3.178a3.073 3.073 0 004.308 0l3.258-3.178a6.15 6.15 0 018.616 0l6.489 6.33-2.154 2.281-6.489-6.331a3.075 3.075 0 00-4.308 0l-3.258 3.179a6.15 6.15 0 01-8.616 0l-3.257-3.179a3.075 3.075 0 00-4.308 0l-3.258 3.179a6.15 6.15 0 01-8.616 0l-3.257-3.179a3.075 3.075 0 00-4.309 0l-3.257 3.179a6.15 6.15 0 01-8.616 0l-3.258-3.179zm0 17.385a3.075 3.075 0 00-4.308 0l-6.488 6.33-2.154-2.28 6.488-6.33a6.148 6.148 0 018.616 0l3.258 3.178a3.075 3.075 0 004.308 0l3.258-3.178a6.148 6.148 0 018.615 0l3.258 3.178a3.075 3.075 0 004.308 0l3.258-3.178a6.148 6.148 0 018.616 0l3.257 3.178a3.075 3.075 0 004.308 0l3.258-3.178a6.148 6.148 0 018.616 0l6.489 6.33-2.154 2.28-6.489-6.33a3.075 3.075 0 00-4.308 0l-3.258 3.178a6.148 6.148 0 01-8.616 0l-3.257-3.178a3.075 3.075 0 00-4.308 0l-3.258 3.178a6.148 6.148 0 01-8.616 0l-3.257-3.178a3.075 3.075 0 00-4.309 0l-3.257 3.178a6.148 6.148 0 01-8.616 0l-3.258-3.178zM60.533 439.7a3.075 3.075 0 014.308 0l3.258 3.178a6.15 6.15 0 008.616 0l3.257-3.178a3.075 3.075 0 014.309 0l3.257 3.178a6.15 6.15 0 008.616 0l3.258-3.178a3.075 3.075 0 014.308 0l3.257 3.178a6.15 6.15 0 008.616 0l3.258-3.178a3.075 3.075 0 014.308 0l6.489 6.33 2.154-2.28-6.489-6.33a6.148 6.148 0 00-8.616 0l-3.258 3.178a3.075 3.075 0 01-4.308 0l-3.257-3.178a6.148 6.148 0 00-8.616 0L94 440.598a3.075 3.075 0 01-4.308 0l-3.258-3.178a6.148 6.148 0 00-8.615 0l-3.258 3.178a3.075 3.075 0 01-4.308 0l-3.258-3.178a6.148 6.148 0 00-8.616 0l-6.488 6.33 2.154 2.28 6.488-6.33zm4.308 17.385a3.073 3.073 0 00-4.308 0l-6.488 6.33-2.154-2.28 6.488-6.331a6.15 6.15 0 018.616 0l3.258 3.179a3.075 3.075 0 004.308 0l3.258-3.179a6.15 6.15 0 018.615 0l3.258 3.179a3.075 3.075 0 004.308 0l3.258-3.179a6.15 6.15 0 018.616 0l3.257 3.179a3.075 3.075 0 004.308 0l3.258-3.179a6.15 6.15 0 018.616 0l6.489 6.331-2.154 2.28-6.489-6.33a3.073 3.073 0 00-4.308 0l-3.258 3.178a6.15 6.15 0 01-8.616 0l-3.257-3.178a3.073 3.073 0 00-4.308 0l-3.258 3.178a6.15 6.15 0 01-8.616 0l-3.257-3.178a3.073 3.073 0 00-4.309 0l-3.257 3.178a6.15 6.15 0 01-8.616 0l-3.258-3.178zm-4.308 17.384a3.075 3.075 0 014.308 0l3.258 3.179a6.15 6.15 0 008.616 0l3.257-3.179a3.075 3.075 0 014.309 0l3.257 3.179a6.15 6.15 0 008.616 0l3.258-3.179a3.075 3.075 0 014.308 0l3.257 3.179a6.15 6.15 0 008.616 0l3.258-3.179a3.075 3.075 0 014.308 0l6.489 6.331 2.154-2.28-6.489-6.331a6.15 6.15 0 00-8.616 0l-3.258 3.178a3.073 3.073 0 01-4.308 0l-3.257-3.178a6.15 6.15 0 00-8.616 0L94 475.367a3.073 3.073 0 01-4.308 0l-3.258-3.178a6.15 6.15 0 00-8.615 0l-3.258 3.178a3.073 3.073 0 01-4.308 0l-3.258-3.178a6.15 6.15 0 00-8.616 0l-6.488 6.331 2.154 2.28 6.488-6.331z"/>
        </g>
        <g opacity=".1">
            <path opacity=".5" d="M312 415.872a4.995 4.995 0 004.994 4.995h9.989a4.995 4.995 0 004.995-4.995v-9.989a4.994 4.994 0 00-4.995-4.994h-9.989a4.994 4.994 0 00-4.994 4.994v9.989zM351.957 415.872a4.995 4.995 0 004.994 4.995h9.989a4.995 4.995 0 004.995-4.995v-9.989a4.994 4.994 0 00-4.995-4.994h-9.989a4.994 4.994 0 00-4.994 4.994v9.989z"/>
            <path d="M391.911 480.8c0-22.067-17.889-39.956-39.956-39.956-22.066 0-39.955 17.889-39.955 39.956 0 22.067 17.889 39.955 39.955 39.955 22.067 0 39.956-17.888 39.956-39.955z"/>
            <path fill-rule="evenodd" clip-rule="evenodd" d="M324.951 376.869a3.073 3.073 0 01-4.308 0l-6.489-6.33-2.154 2.28 6.489 6.331a6.15 6.15 0 008.616 0l3.257-3.179a3.075 3.075 0 014.308 0l3.258 3.179a6.15 6.15 0 008.616 0l3.258-3.179a3.074 3.074 0 014.307 0l3.258 3.179a6.15 6.15 0 008.616 0l3.258-3.179a3.075 3.075 0 014.308 0l3.257 3.179a6.15 6.15 0 008.616 0l6.489-6.331-2.154-2.28-6.489 6.33a3.073 3.073 0 01-4.308 0l-3.257-3.178a6.15 6.15 0 00-8.616 0l-3.258 3.178a3.073 3.073 0 01-4.308 0l-3.258-3.178a6.149 6.149 0 00-8.615 0l-3.258 3.178a3.073 3.073 0 01-4.308 0l-3.258-3.178a6.15 6.15 0 00-8.616 0l-3.257 3.178zm0-17.384a3.075 3.075 0 01-4.308 0l-6.489-6.331-2.154 2.281 6.489 6.33a6.15 6.15 0 008.616 0l3.257-3.178a3.073 3.073 0 014.308 0l3.258 3.178a6.15 6.15 0 008.616 0l3.258-3.178a3.072 3.072 0 014.307 0l3.258 3.178a6.15 6.15 0 008.616 0l3.258-3.178a3.073 3.073 0 014.308 0l3.257 3.178a6.15 6.15 0 008.616 0l6.489-6.33-2.154-2.281-6.489 6.331a3.075 3.075 0 01-4.308 0l-3.257-3.179a6.15 6.15 0 00-8.616 0l-3.258 3.179a3.075 3.075 0 01-4.308 0l-3.258-3.179a6.149 6.149 0 00-8.615 0l-3.258 3.179a3.075 3.075 0 01-4.308 0l-3.258-3.179a6.15 6.15 0 00-8.616 0l-3.257 3.179zm-4.308-17.385a3.075 3.075 0 004.308 0l3.257-3.178a6.148 6.148 0 018.616 0l3.258 3.178a3.075 3.075 0 004.308 0l3.258-3.178a6.147 6.147 0 018.615 0l3.258 3.178a3.075 3.075 0 004.308 0l3.258-3.178a6.148 6.148 0 018.616 0l3.257 3.178a3.075 3.075 0 004.308 0l6.489-6.33 2.154 2.28-6.489 6.33a6.148 6.148 0 01-8.616 0l-3.257-3.178a3.075 3.075 0 00-4.308 0l-3.258 3.178a6.148 6.148 0 01-8.616 0l-3.258-3.178a3.074 3.074 0 00-4.307 0l-3.258 3.178a6.148 6.148 0 01-8.616 0l-3.258-3.178a3.075 3.075 0 00-4.308 0l-3.257 3.178a6.148 6.148 0 01-8.616 0L312 338.05l2.154-2.28 6.489 6.33zm4.308-17.385a3.075 3.075 0 01-4.308 0l-6.489-6.33-2.154 2.28 6.489 6.33a6.148 6.148 0 008.616 0l3.257-3.178a3.075 3.075 0 014.308 0l3.258 3.178a6.148 6.148 0 008.616 0l3.258-3.178a3.074 3.074 0 014.307 0l3.258 3.178a6.148 6.148 0 008.616 0l3.258-3.178a3.075 3.075 0 014.308 0l3.257 3.178a6.148 6.148 0 008.616 0l6.489-6.33-2.154-2.28-6.489 6.33a3.075 3.075 0 01-4.308 0l-3.257-3.178a6.15 6.15 0 00-8.616 0l-3.258 3.178a3.075 3.075 0 01-4.308 0l-3.258-3.178a6.149 6.149 0 00-8.615 0l-3.258 3.178a3.075 3.075 0 01-4.308 0l-3.258-3.178a6.15 6.15 0 00-8.616 0l-3.257 3.178zm-4.308-17.385a3.073 3.073 0 004.308 0l3.257-3.178a6.15 6.15 0 018.616 0l3.258 3.178a3.073 3.073 0 004.308 0l3.258-3.178a6.149 6.149 0 018.615 0l3.258 3.178a3.073 3.073 0 004.308 0l3.258-3.178a6.15 6.15 0 018.616 0l3.257 3.178a3.073 3.073 0 004.308 0l6.489-6.33 2.154 2.28-6.489 6.331a6.15 6.15 0 01-8.616 0l-3.257-3.179a3.075 3.075 0 00-4.308 0l-3.258 3.179a6.15 6.15 0 01-8.616 0l-3.258-3.179a3.074 3.074 0 00-4.307 0l-3.258 3.179a6.15 6.15 0 01-8.616 0l-3.258-3.179a3.075 3.075 0 00-4.308 0l-3.257 3.179a6.15 6.15 0 01-8.616 0L312 303.28l2.154-2.28 6.489 6.33z"/>
        </g>
    </g>
</svg>
