<svg width="1088" height="584" fill="none" xmlns="http://www.w3.org/2000/svg">
    <mask id="a" style="mask-type:alpha" maskUnits="userSpaceOnUse" x="0" y="0" width="1088" height="584">
        <path d="M0 96C0 42.98 42.98 0 96 0h992v584H0V96z" fill="#FFF7EB"/>
    </mask>
    <g mask="url(#a)" fill="#FFAE36">
        <g opacity=".1">
            <path opacity=".5" d="M554.789 247.246c0 9.877 8.007 17.884 17.883 17.884h35.766c9.877 0 17.883-8.007 17.883-17.884V211.48c0-9.876-8.006-17.883-17.883-17.883h-35.766c-9.876 0-17.883 8.007-17.883 17.883v35.766zM554.789 81.828c0 2.469 2.002 4.47 4.471 4.47h8.941a4.47 4.47 0 004.471-4.47v-8.942a4.47 4.47 0 00-4.471-4.47h-8.941a4.471 4.471 0 00-4.471 4.47v8.942zM590.555 81.828a4.47 4.47 0 004.47 4.47h8.942a4.471 4.471 0 004.471-4.47v-8.942c0-2.469-2.002-4.47-4.471-4.47h-8.942a4.47 4.47 0 00-4.47 4.47v8.942zM626.324 81.828c0 2.469 2.002 4.47 4.471 4.47h8.942a4.47 4.47 0 004.47-4.47v-8.942a4.47 4.47 0 00-4.47-4.47h-8.942a4.471 4.471 0 00-4.471 4.47v8.942zM662.086 81.828c0 2.469 2.002 4.47 4.471 4.47h8.941a4.471 4.471 0 004.471-4.47v-8.942c0-2.469-2.002-4.47-4.471-4.47h-8.941a4.471 4.471 0 00-4.471 4.47v8.942zM697.855 81.828c0 2.469 2.002 4.47 4.471 4.47h8.942a4.471 4.471 0 004.471-4.47v-8.942c0-2.469-2.002-4.47-4.471-4.47h-8.942a4.471 4.471 0 00-4.471 4.47v8.942zM733.621 81.828c0 2.469 2.002 4.47 4.471 4.47h8.941a4.47 4.47 0 004.471-4.47v-8.942a4.47 4.47 0 00-4.471-4.47h-8.941a4.471 4.471 0 00-4.471 4.47v8.942zM769.391 81.828a4.47 4.47 0 004.47 4.47h8.942a4.471 4.471 0 004.471-4.47v-8.942c0-2.469-2.002-4.47-4.471-4.47h-8.942a4.47 4.47 0 00-4.47 4.47v8.942zM805.156 81.828c0 2.469 2.002 4.47 4.471 4.47h8.942a4.47 4.47 0 004.47-4.47v-8.942a4.47 4.47 0 00-4.47-4.47h-8.942a4.471 4.471 0 00-4.471 4.47v8.942zM840.918 81.828c0 2.469 2.002 4.47 4.471 4.47h8.941a4.471 4.471 0 004.471-4.47v-8.942c0-2.469-2.002-4.47-4.471-4.47h-8.941a4.471 4.471 0 00-4.471 4.47v8.942z"/>
            <path opacity=".2" d="M733.621 229.363c0 19.754 16.013 35.767 35.766 35.767h53.65c19.753 0 35.766-16.013 35.766-35.767 0-19.753-16.013-35.766-35.766-35.766h-53.65c-19.753 0-35.766 16.013-35.766 35.766zM644.207 14.766c0 19.753 16.013 35.766 35.766 35.766h53.65c19.753 0 35.766-16.013 35.766-35.766C769.389-4.987 753.376-21 733.623-21h-53.65c-19.753 0-35.766 16.013-35.766 35.766z"/>
            <path d="M644.207 247.156c0 15.981 19.322 23.984 30.622 12.684l35.621-35.621c11.3-11.3 3.297-30.622-12.684-30.622h-35.621c-9.907 0-17.938 8.031-17.938 17.938v35.621zM858.805-3.026c0-15.981-19.322-23.984-30.622-12.684l-35.621 35.62c-11.3 11.3-3.297 30.622 12.684 30.622h35.621c9.907 0 17.938-8.03 17.938-17.937V-3.026z"/>
            <path opacity=".2" d="M787.27 157.74c0 15.981 19.321 23.985 30.621 12.684l35.621-35.62c11.3-11.301 3.297-30.622-12.684-30.622h-35.621c-9.906 0-17.937 8.031-17.937 17.938v35.62z"/>
            <path d="M626.321 139.948c0-19.753-16.013-35.766-35.766-35.766-19.753 0-35.766 16.013-35.766 35.766 0 19.753 16.013 35.766 35.766 35.766 19.753 0 35.766-16.013 35.766-35.766z"/>
            <path opacity=".5" d="M769.387 104.182c-19.753 0-35.766 16.013-35.766 35.766 0 19.753 16.013 35.766 35.766 35.766v-71.532z"/>
            <path opacity=".2" fill-rule="evenodd" clip-rule="evenodd" d="M655.8 172.096a2.75 2.75 0 01-3.856 0l-5.809-5.666-1.928 2.041 5.808 5.667a5.505 5.505 0 007.713 0l2.916-2.845a2.75 2.75 0 013.856 0l2.916 2.845a5.505 5.505 0 007.713 0l2.916-2.845a2.75 2.75 0 013.856 0l2.917 2.845a5.504 5.504 0 007.712 0l2.916-2.845a2.75 2.75 0 013.856 0l2.917 2.845a5.504 5.504 0 007.712 0l5.808-5.667-1.928-2.041-5.808 5.666a2.75 2.75 0 01-3.856 0l-2.916-2.845a5.505 5.505 0 00-7.713 0l-2.916 2.845a2.75 2.75 0 01-3.856 0l-2.917-2.845a5.504 5.504 0 00-7.712 0l-2.916 2.845a2.75 2.75 0 01-3.856 0l-2.917-2.845a5.504 5.504 0 00-7.712 0l-2.916 2.845zm0-15.562a2.75 2.75 0 01-3.856 0l-5.809-5.666-1.928 2.041 5.808 5.667a5.505 5.505 0 007.713 0l2.916-2.845a2.75 2.75 0 013.856 0l2.916 2.845a5.505 5.505 0 007.713 0l2.916-2.845a2.75 2.75 0 013.856 0l2.917 2.845a5.504 5.504 0 007.712 0l2.916-2.845a2.75 2.75 0 013.856 0l2.917 2.845a5.504 5.504 0 007.712 0l5.808-5.667-1.928-2.041-5.808 5.666a2.75 2.75 0 01-3.856 0l-2.916-2.845a5.505 5.505 0 00-7.713 0l-2.916 2.845a2.75 2.75 0 01-3.856 0l-2.917-2.845a5.504 5.504 0 00-7.712 0l-2.916 2.845a2.75 2.75 0 01-3.856 0l-2.917-2.845a5.504 5.504 0 00-7.712 0l-2.916 2.845zm-3.856-15.562a2.75 2.75 0 003.856 0l2.916-2.845a5.504 5.504 0 017.712 0l2.917 2.845a2.75 2.75 0 003.856 0l2.916-2.845a5.504 5.504 0 017.712 0l2.917 2.845a2.75 2.75 0 003.856 0l2.916-2.845a5.505 5.505 0 017.713 0l2.916 2.845a2.75 2.75 0 003.856 0l5.808-5.666 1.928 2.041-5.808 5.667a5.504 5.504 0 01-7.712 0l-2.917-2.845a2.75 2.75 0 00-3.856 0l-2.916 2.845a5.504 5.504 0 01-7.712 0l-2.917-2.845a2.75 2.75 0 00-3.856 0l-2.916 2.845a5.505 5.505 0 01-7.713 0l-2.916-2.845a2.75 2.75 0 00-3.856 0l-2.916 2.845a5.505 5.505 0 01-7.713 0l-5.808-5.667 1.928-2.041 5.809 5.666zm3.856-15.561a2.752 2.752 0 01-3.856 0l-5.809-5.667-1.928 2.041 5.808 5.667a5.505 5.505 0 007.713 0l2.916-2.845a2.752 2.752 0 013.856 0l2.916 2.845a5.505 5.505 0 007.713 0l2.916-2.845a2.752 2.752 0 013.856 0l2.917 2.845a5.504 5.504 0 007.712 0l2.916-2.845a2.752 2.752 0 013.856 0l2.917 2.845a5.504 5.504 0 007.712 0l5.808-5.667-1.928-2.041-5.808 5.667a2.752 2.752 0 01-3.856 0l-2.916-2.846a5.505 5.505 0 00-7.713 0l-2.916 2.846a2.752 2.752 0 01-3.856 0l-2.917-2.846a5.504 5.504 0 00-7.712 0l-2.916 2.846a2.752 2.752 0 01-3.856 0l-2.917-2.846a5.504 5.504 0 00-7.712 0l-2.916 2.846zm-3.856-15.562a2.752 2.752 0 003.856 0l2.916-2.846a5.504 5.504 0 017.712 0l2.917 2.846a2.752 2.752 0 003.856 0l2.916-2.846a5.504 5.504 0 017.712 0l2.917 2.846a2.752 2.752 0 003.856 0l2.916-2.846a5.505 5.505 0 017.713 0l2.916 2.846a2.752 2.752 0 003.856 0l5.808-5.667 1.928 2.041-5.808 5.667a5.504 5.504 0 01-7.712 0l-2.917-2.845a2.752 2.752 0 00-3.856 0l-2.916 2.845a5.504 5.504 0 01-7.712 0l-2.917-2.845a2.752 2.752 0 00-3.856 0l-2.916 2.845a5.505 5.505 0 01-7.713 0l-2.916-2.845a2.752 2.752 0 00-3.856 0l-2.916 2.845a5.505 5.505 0 01-7.713 0l-5.808-5.667 1.928-2.041 5.809 5.667z"/>
            <path fill-rule="evenodd" clip-rule="evenodd" d="M566.382 46.915a2.752 2.752 0 01-3.856 0l-5.809-5.667-1.928 2.041 5.808 5.667a5.505 5.505 0 007.713 0l2.916-2.845a2.752 2.752 0 013.856 0l2.916 2.845a5.505 5.505 0 007.713 0l2.916-2.845a2.752 2.752 0 013.856 0l2.917 2.845a5.504 5.504 0 007.712 0l2.916-2.845a2.752 2.752 0 013.856 0l2.917 2.845a5.504 5.504 0 007.712 0l5.808-5.667-1.928-2.041-5.808 5.667a2.752 2.752 0 01-3.856 0l-2.916-2.845a5.505 5.505 0 00-7.713 0l-2.916 2.845a2.752 2.752 0 01-3.856 0l-2.916-2.845a5.505 5.505 0 00-7.713 0l-2.916 2.845a2.752 2.752 0 01-3.856 0l-2.917-2.845a5.504 5.504 0 00-7.712 0l-2.916 2.845zm0-15.562a2.752 2.752 0 01-3.856 0l-5.809-5.667-1.928 2.041 5.808 5.667a5.505 5.505 0 007.713 0l2.916-2.845a2.752 2.752 0 013.856 0l2.916 2.845a5.505 5.505 0 007.713 0l2.916-2.845a2.752 2.752 0 013.856 0l2.917 2.845a5.504 5.504 0 007.712 0l2.916-2.845a2.752 2.752 0 013.856 0l2.917 2.845a5.504 5.504 0 007.712 0l5.808-5.667-1.928-2.041-5.808 5.667a2.752 2.752 0 01-3.856 0l-2.916-2.845a5.505 5.505 0 00-7.713 0l-2.916 2.845a2.752 2.752 0 01-3.856 0l-2.916-2.845a5.505 5.505 0 00-7.713 0l-2.916 2.845a2.752 2.752 0 01-3.856 0l-2.917-2.845a5.504 5.504 0 00-7.712 0l-2.916 2.845zm-3.856-15.562a2.752 2.752 0 003.856 0l2.916-2.845a5.504 5.504 0 017.712 0l2.917 2.845a2.752 2.752 0 003.856 0l2.916-2.845a5.505 5.505 0 017.713 0l2.916 2.845a2.752 2.752 0 003.856 0l2.916-2.845a5.505 5.505 0 017.713 0l2.916 2.845a2.752 2.752 0 003.856 0l5.808-5.667 1.928 2.041-5.808 5.667a5.504 5.504 0 01-7.712 0l-2.917-2.845a2.752 2.752 0 00-3.856 0l-2.916 2.845a5.504 5.504 0 01-7.712 0l-2.917-2.845a2.752 2.752 0 00-3.856 0l-2.916 2.845a5.505 5.505 0 01-7.713 0l-2.916-2.845a2.752 2.752 0 00-3.856 0l-2.916 2.845a5.505 5.505 0 01-7.713 0l-5.808-5.667 1.928-2.041 5.809 5.667zM566.382.229a2.752 2.752 0 01-3.856 0l-5.809-5.667-1.928 2.041 5.808 5.667a5.505 5.505 0 007.713 0l2.916-2.845a2.752 2.752 0 013.856 0l2.916 2.845a5.505 5.505 0 007.713 0l2.916-2.845a2.752 2.752 0 013.856 0L595.4 2.27a5.504 5.504 0 007.712 0l2.916-2.845a2.752 2.752 0 013.856 0l2.917 2.845a5.504 5.504 0 007.712 0l5.808-5.667-1.928-2.041-5.808 5.667a2.752 2.752 0 01-3.856 0l-2.916-2.845a5.505 5.505 0 00-7.713 0L601.184.229a2.752 2.752 0 01-3.856 0l-2.916-2.845a5.505 5.505 0 00-7.713 0L583.783.229a2.752 2.752 0 01-3.856 0l-2.917-2.845a5.504 5.504 0 00-7.712 0L566.382.229zm-3.856-15.562a2.752 2.752 0 003.856 0l2.916-2.845a5.504 5.504 0 017.712 0l2.917 2.845a2.752 2.752 0 003.856 0l2.916-2.845a5.505 5.505 0 017.713 0l2.916 2.845a2.752 2.752 0 003.856 0l2.916-2.845a5.505 5.505 0 017.713 0l2.916 2.845a2.752 2.752 0 003.856 0L624.393-21l1.928 2.041-5.808 5.667a5.504 5.504 0 01-7.712 0l-2.917-2.845a2.752 2.752 0 00-3.856 0l-2.916 2.845a5.504 5.504 0 01-7.712 0l-2.917-2.845a2.752 2.752 0 00-3.856 0l-2.916 2.845a5.505 5.505 0 01-7.713 0l-2.916-2.845a2.752 2.752 0 00-3.856 0l-2.916 2.845a5.505 5.505 0 01-7.713 0l-5.808-5.667 1.928-2.04 5.809 5.666z"/>
        </g>
        <g opacity=".1">
            <path opacity=".5" d="M1073.41 81.828c0 2.47-2.01 4.47-4.47 4.47h-8.95a4.47 4.47 0 01-4.47-4.47v-8.942c0-2.469 2-4.47 4.47-4.47h8.95c2.46 0 4.47 2.001 4.47 4.47v8.942zM1037.64 81.828c0 2.47-2 4.47-4.47 4.47h-8.95a4.476 4.476 0 01-4.47-4.47v-8.942c0-2.469 2.01-4.47 4.47-4.47h8.95a4.47 4.47 0 014.47 4.47v8.942zM1001.87 81.828a4.47 4.47 0 01-4.47 4.47h-8.941a4.471 4.471 0 01-4.471-4.47v-8.942c0-2.469 2.002-4.47 4.471-4.47h8.941a4.47 4.47 0 014.47 4.47v8.942zM966.102 81.828c0 2.47-2.002 4.47-4.471 4.47h-8.942a4.471 4.471 0 01-4.471-4.47v-8.942c0-2.469 2.002-4.47 4.471-4.47h8.942a4.471 4.471 0 014.471 4.47v8.942zM930.34 81.828c0 2.47-2.002 4.47-4.471 4.47h-8.941a4.47 4.47 0 01-4.471-4.47v-8.942a4.47 4.47 0 014.471-4.47h8.941a4.471 4.471 0 014.471 4.47v8.942zM894.574 81.828a4.47 4.47 0 01-4.471 4.47h-8.941a4.471 4.471 0 01-4.471-4.47v-8.942c0-2.469 2.002-4.47 4.471-4.47h8.941a4.47 4.47 0 014.471 4.47v8.942z"/>
            <path opacity=".2" d="M1001.87 229.363c0 19.754-16.012 35.767-35.765 35.767h-53.649c-19.754 0-35.767-16.013-35.767-35.767 0-19.753 16.013-35.766 35.767-35.766h53.649c19.753 0 35.765 16.013 35.765 35.766zM1091.29 14.766c0 19.753-16.02 35.766-35.77 35.766h-53.65c-19.753 0-35.767-16.012-35.767-35.766C966.103-4.987 982.117-21 1001.87-21h53.65c19.75 0 35.77 16.013 35.77 35.766z"/>
            <path d="M1091.29 247.156c0 15.981-19.33 23.984-30.63 12.684l-35.62-35.621c-11.3-11.3-3.29-30.622 12.69-30.622h35.62c9.9 0 17.94 8.031 17.94 17.938v35.621zM876.691-3.026c0-15.981 19.322-23.984 30.622-12.684l35.621 35.62c11.3 11.3 3.297 30.622-12.684 30.622h-35.621c-9.907 0-17.938-8.03-17.938-17.937V-3.026z"/>
            <path opacity=".2" d="M948.223 157.74c0 15.981-19.322 23.985-30.622 12.684l-35.621-35.62c-11.3-11.301-3.297-30.622 12.684-30.622h35.621c9.907 0 17.938 8.031 17.938 17.938v35.62z"/>
            <path opacity=".5" d="M966.105 104.182c19.753 0 35.765 16.013 35.765 35.766 0 19.753-16.012 35.766-35.765 35.766v-71.532z"/>
            <path opacity=".2" fill-rule="evenodd" clip-rule="evenodd" d="M1079.69 172.096a2.755 2.755 0 003.86 0l5.81-5.666 1.93 2.041-5.81 5.667a5.514 5.514 0 01-7.72 0l-2.91-2.845a2.755 2.755 0 00-3.86 0l-2.91 2.845a5.514 5.514 0 01-7.72 0l-2.91-2.845a2.755 2.755 0 00-3.86 0l-2.92 2.845a5.502 5.502 0 01-7.71 0l-2.91-2.845a2.755 2.755 0 00-3.86 0l-2.92 2.845a5.502 5.502 0 01-7.71 0l-5.81-5.667 1.93-2.041 5.81 5.666a2.755 2.755 0 003.86 0l2.91-2.845a5.502 5.502 0 017.71 0l2.92 2.845a2.755 2.755 0 003.86 0l2.91-2.845a5.514 5.514 0 017.72 0l2.91 2.845a2.755 2.755 0 003.86 0l2.91-2.845a5.514 5.514 0 017.72 0l2.91 2.845zm0-15.562a2.755 2.755 0 003.86 0l5.81-5.666 1.93 2.041-5.81 5.667a5.514 5.514 0 01-7.72 0l-2.91-2.845a2.755 2.755 0 00-3.86 0l-2.91 2.845a5.514 5.514 0 01-7.72 0l-2.91-2.845a2.755 2.755 0 00-3.86 0l-2.92 2.845a5.502 5.502 0 01-7.71 0l-2.91-2.845a2.755 2.755 0 00-3.86 0l-2.92 2.845a5.502 5.502 0 01-7.71 0l-5.81-5.667 1.93-2.041 5.81 5.666a2.755 2.755 0 003.86 0l2.91-2.845a5.502 5.502 0 017.71 0l2.92 2.845a2.755 2.755 0 003.86 0l2.91-2.845a5.514 5.514 0 017.72 0l2.91 2.845a2.755 2.755 0 003.86 0l2.91-2.845a5.514 5.514 0 017.72 0l2.91 2.845zm3.86-15.562a2.755 2.755 0 01-3.86 0l-2.91-2.845a5.514 5.514 0 00-7.72 0l-2.91 2.845a2.755 2.755 0 01-3.86 0l-2.91-2.845a5.514 5.514 0 00-7.72 0l-2.91 2.845a2.755 2.755 0 01-3.86 0l-2.92-2.845a5.502 5.502 0 00-7.71 0l-2.91 2.845a2.755 2.755 0 01-3.86 0l-5.81-5.666-1.93 2.041 5.81 5.667a5.502 5.502 0 007.71 0l2.92-2.845a2.755 2.755 0 013.86 0l2.91 2.845a5.502 5.502 0 007.71 0l2.92-2.845a2.755 2.755 0 013.86 0l2.91 2.845a5.514 5.514 0 007.72 0l2.91-2.845a2.755 2.755 0 013.86 0l2.91 2.845a5.514 5.514 0 007.72 0l5.81-5.667-1.93-2.041-5.81 5.666zm-3.86-15.561a2.757 2.757 0 003.86 0l5.81-5.667 1.93 2.041-5.81 5.667a5.514 5.514 0 01-7.72 0l-2.91-2.845a2.757 2.757 0 00-3.86 0l-2.91 2.845a5.514 5.514 0 01-7.72 0l-2.91-2.845a2.757 2.757 0 00-3.86 0l-2.92 2.845a5.502 5.502 0 01-7.71 0l-2.91-2.845a2.757 2.757 0 00-3.86 0l-2.92 2.845a5.502 5.502 0 01-7.71 0l-5.81-5.667 1.93-2.041 5.81 5.667a2.757 2.757 0 003.86 0l2.91-2.846a5.502 5.502 0 017.71 0l2.92 2.846a2.757 2.757 0 003.86 0l2.91-2.846a5.514 5.514 0 017.72 0l2.91 2.846a2.757 2.757 0 003.86 0l2.91-2.846a5.514 5.514 0 017.72 0l2.91 2.846zm3.86-15.562a2.757 2.757 0 01-3.86 0l-2.91-2.846a5.514 5.514 0 00-7.72 0l-2.91 2.846a2.757 2.757 0 01-3.86 0l-2.91-2.846a5.514 5.514 0 00-7.72 0l-2.91 2.846a2.757 2.757 0 01-3.86 0l-2.92-2.846a5.502 5.502 0 00-7.71 0l-2.91 2.846a2.757 2.757 0 01-3.86 0l-5.81-5.667-1.93 2.041 5.81 5.667a5.502 5.502 0 007.71 0l2.92-2.845a2.757 2.757 0 013.86 0l2.91 2.845a5.502 5.502 0 007.71 0l2.92-2.845a2.757 2.757 0 013.86 0l2.91 2.845a5.514 5.514 0 007.72 0l2.91-2.845a2.757 2.757 0 013.86 0l2.91 2.845a5.514 5.514 0 007.72 0l5.81-5.667-1.93-2.041-5.81 5.667z"/>
        </g>
        <g opacity=".1">
            <path opacity=".5" d="M-17.469 162.302a4.471 4.471 0 014.471-4.471h8.942c2.469 0 4.47 2.002 4.47 4.471v8.941a4.47 4.47 0 01-4.47 4.471h-8.942a4.47 4.47 0 01-4.47-4.471v-8.941zM18.297 162.302a4.471 4.471 0 014.47-4.471h8.942c2.47 0 4.471 2.002 4.471 4.471v8.941a4.47 4.47 0 01-4.47 4.471h-8.942a4.47 4.47 0 01-4.471-4.471v-8.941zM54.066 162.302a4.471 4.471 0 014.471-4.471h8.942c2.469 0 4.47 2.002 4.47 4.471v8.941a4.47 4.47 0 01-4.47 4.471h-8.942a4.47 4.47 0 01-4.47-4.471v-8.941zM89.832 162.302a4.471 4.471 0 014.47-4.471h8.942a4.47 4.47 0 014.471 4.471v8.941a4.47 4.47 0 01-4.471 4.471h-8.941a4.47 4.47 0 01-4.471-4.471v-8.941zM125.602 162.302a4.47 4.47 0 014.47-4.471h8.942a4.471 4.471 0 014.471 4.471v8.941a4.47 4.47 0 01-4.471 4.471h-8.942a4.47 4.47 0 01-4.47-4.471v-8.941zM161.363 162.302a4.471 4.471 0 014.471-4.471h8.942a4.47 4.47 0 014.47 4.471v8.941a4.47 4.47 0 01-4.47 4.471h-8.942a4.47 4.47 0 01-4.471-4.471v-8.941zM197.129 162.302a4.471 4.471 0 014.471-4.471h8.941a4.471 4.471 0 014.471 4.471v8.941a4.47 4.47 0 01-4.471 4.471H201.6a4.47 4.47 0 01-4.471-4.471v-8.941z"/>
            <path opacity=".2" d="M89.832 14.766C89.832-4.987 105.845-21 125.598-21h53.65c19.753 0 35.766 16.013 35.766 35.766 0 19.753-16.013 35.766-35.766 35.766h-53.65c-19.753 0-35.766-16.013-35.766-35.766zM.418 229.363c0-19.753 16.013-35.766 35.766-35.766h53.65c19.753 0 35.766 16.013 35.766 35.766 0 19.754-16.013 35.767-35.766 35.767h-53.65c-19.753 0-35.766-16.013-35.766-35.767z"/>
            <path d="M.418-3.026C.418-19.007 19.74-27.01 31.04-15.71l35.62 35.62c11.3 11.3 3.297 30.622-12.683 30.622H18.356c-9.907 0-17.938-8.03-17.938-17.937V-3.026zM215.012 247.156c0 15.981-19.322 23.984-30.622 12.684l-35.621-35.621c-11.3-11.3-3.297-30.622 12.684-30.622h35.621c9.907 0 17.938 8.031 17.938 17.938v35.621z"/>
            <path opacity=".2" d="M143.48 86.39c0-15.982 19.322-23.985 30.622-12.685l35.621 35.621c11.3 11.3 3.297 30.622-12.684 30.622h-35.621c-9.906 0-17.938-8.031-17.938-17.938V86.39z"/>
            <path opacity=".5" d="M125.598 139.948c-19.753 0-35.766-16.013-35.766-35.766 0-19.753 16.013-35.767 35.766-35.767v71.533z"/>
            <path opacity=".2" fill-rule="evenodd" clip-rule="evenodd" d="M12.01 72.033a2.752 2.752 0 00-3.856 0L2.346 77.7.418 75.659l5.808-5.667a5.504 5.504 0 017.713 0l2.916 2.845a2.752 2.752 0 003.856 0l2.916-2.845a5.504 5.504 0 017.713 0l2.916 2.845a2.752 2.752 0 003.856 0l2.916-2.845a5.504 5.504 0 017.713 0l2.916 2.845a2.752 2.752 0 003.856 0l2.916-2.845a5.504 5.504 0 017.713 0l5.808 5.667-1.928 2.041-5.808-5.667a2.752 2.752 0 00-3.856 0l-2.916 2.845a5.504 5.504 0 01-7.713 0l-2.916-2.845a2.752 2.752 0 00-3.856 0l-2.917 2.845a5.504 5.504 0 01-7.712 0l-2.916-2.845a2.752 2.752 0 00-3.857 0l-2.916 2.845a5.504 5.504 0 01-7.712 0l-2.916-2.845zm0 15.562a2.752 2.752 0 00-3.856 0l-5.808 5.667-1.928-2.041 5.808-5.667a5.504 5.504 0 017.713 0l2.916 2.845a2.752 2.752 0 003.856 0l2.916-2.845a5.504 5.504 0 017.713 0l2.916 2.845a2.752 2.752 0 003.856 0l2.916-2.845a5.504 5.504 0 017.713 0l2.916 2.845a2.752 2.752 0 003.856 0l2.916-2.845a5.504 5.504 0 017.713 0l5.808 5.667-1.928 2.041-5.808-5.667a2.752 2.752 0 00-3.856 0l-2.916 2.845a5.504 5.504 0 01-7.713 0l-2.916-2.845a2.752 2.752 0 00-3.856 0L40.04 90.44a5.504 5.504 0 01-7.712 0l-2.916-2.845a2.752 2.752 0 00-3.857 0L22.64 90.44a5.504 5.504 0 01-7.712 0l-2.916-2.845zm-3.856 15.562a2.752 2.752 0 013.857 0l2.916 2.845a5.505 5.505 0 007.712 0l2.916-2.845a2.752 2.752 0 013.857 0l2.916 2.845a5.505 5.505 0 007.712 0l2.917-2.845a2.752 2.752 0 013.856 0l2.916 2.845a5.505 5.505 0 007.712 0l2.917-2.845a2.752 2.752 0 013.856 0l5.808 5.667 1.928-2.041-5.808-5.667a5.504 5.504 0 00-7.712 0l-2.917 2.845a2.752 2.752 0 01-3.856 0l-2.916-2.845a5.505 5.505 0 00-7.713 0l-2.916 2.845a2.752 2.752 0 01-3.856 0l-2.916-2.845a5.504 5.504 0 00-7.713 0l-2.916 2.845a2.752 2.752 0 01-3.856 0l-2.916-2.845a5.504 5.504 0 00-7.713 0l-5.808 5.667 1.928 2.041 5.808-5.667zm3.857 15.562a2.752 2.752 0 00-3.857 0l-5.808 5.667-1.928-2.041 5.808-5.667a5.505 5.505 0 017.713 0l2.916 2.845a2.752 2.752 0 003.856 0l2.916-2.845a5.505 5.505 0 017.713 0l2.916 2.845a2.752 2.752 0 003.856 0l2.916-2.845a5.505 5.505 0 017.713 0l2.916 2.845a2.752 2.752 0 003.856 0l2.916-2.845a5.505 5.505 0 017.713 0l5.808 5.667-1.928 2.041-5.808-5.667a2.752 2.752 0 00-3.856 0l-2.916 2.845a5.505 5.505 0 01-7.713 0l-2.916-2.845a2.752 2.752 0 00-3.856 0l-2.917 2.845a5.505 5.505 0 01-7.712 0l-2.916-2.845a2.752 2.752 0 00-3.857 0l-2.916 2.845a5.505 5.505 0 01-7.712 0l-2.916-2.845zm-3.857 15.562a2.752 2.752 0 013.857 0l2.916 2.845a5.505 5.505 0 007.712 0l2.916-2.845a2.752 2.752 0 013.857 0l2.916 2.845a5.505 5.505 0 007.712 0l2.917-2.845a2.752 2.752 0 013.856 0l2.916 2.845a5.505 5.505 0 007.712 0l2.917-2.845a2.752 2.752 0 013.856 0l5.808 5.667 1.928-2.041-5.808-5.667a5.505 5.505 0 00-7.712 0l-2.917 2.845a2.752 2.752 0 01-3.856 0l-2.916-2.845a5.505 5.505 0 00-7.713 0l-2.916 2.845a2.752 2.752 0 01-3.856 0l-2.916-2.845a5.505 5.505 0 00-7.713 0l-2.916 2.845a2.752 2.752 0 01-3.856 0l-2.916-2.845a5.505 5.505 0 00-7.713 0l-5.808 5.667 1.928 2.041 5.808-5.667z"/>
        </g>
        <g opacity=".1">
            <path opacity=".5" d="M232.898 247.247c0 9.876 8.007 17.883 17.884 17.883h35.766c9.876 0 17.883-8.007 17.883-17.883V211.48c0-9.876-8.007-17.883-17.883-17.883h-35.766c-9.877 0-17.884 8.007-17.884 17.883v35.767zM232.898 81.828c0 2.47 2.002 4.47 4.471 4.47h8.942a4.471 4.471 0 004.471-4.47v-8.942c0-2.469-2.002-4.47-4.471-4.47h-8.942a4.471 4.471 0 00-4.471 4.47v8.942zM268.664 81.828c0 2.47 2.002 4.47 4.471 4.47h8.941a4.47 4.47 0 004.471-4.47v-8.942a4.47 4.47 0 00-4.471-4.47h-8.941a4.471 4.471 0 00-4.471 4.47v8.942zM304.43 81.828a4.47 4.47 0 004.47 4.47h8.942a4.471 4.471 0 004.471-4.47v-8.942c0-2.469-2.002-4.47-4.471-4.47H308.9a4.47 4.47 0 00-4.47 4.47v8.942zM340.195 81.828c0 2.47 2.002 4.47 4.471 4.47h8.942a4.47 4.47 0 004.47-4.47v-8.942a4.47 4.47 0 00-4.47-4.47h-8.942a4.471 4.471 0 00-4.471 4.47v8.942zM375.965 81.828a4.47 4.47 0 004.471 4.47h8.941a4.471 4.471 0 004.471-4.47v-8.942c0-2.469-2.002-4.47-4.471-4.47h-8.941a4.47 4.47 0 00-4.471 4.47v8.942zM411.73 81.828c0 2.47 2.002 4.47 4.471 4.47h8.942a4.471 4.471 0 004.471-4.47v-8.942c0-2.469-2.002-4.47-4.471-4.47h-8.942a4.471 4.471 0 00-4.471 4.47v8.942zM447.5 81.828c0 2.47 2.002 4.47 4.471 4.47h8.941a4.471 4.471 0 004.471-4.47v-8.942c0-2.469-2.002-4.47-4.471-4.47h-8.941a4.471 4.471 0 00-4.471 4.47v8.942zM483.262 81.828a4.47 4.47 0 004.47 4.47h8.942a4.471 4.471 0 004.471-4.47v-8.942c0-2.469-2.002-4.47-4.471-4.47h-8.942a4.47 4.47 0 00-4.47 4.47v8.942zM519.027 81.828c0 2.47 2.002 4.47 4.471 4.47h8.942a4.47 4.47 0 004.47-4.47v-8.942a4.47 4.47 0 00-4.47-4.47h-8.942a4.471 4.471 0 00-4.471 4.47v8.942z"/>
            <path opacity=".2" d="M411.73 229.364c0 19.753 16.014 35.766 35.767 35.766h53.649c19.753 0 35.766-16.013 35.766-35.766 0-19.754-16.013-35.767-35.766-35.767h-53.649c-19.753 0-35.767 16.013-35.767 35.767zM322.316 14.766c0 19.753 16.013 35.766 35.767 35.766h53.649c19.753 0 35.766-16.012 35.766-35.766C447.498-4.987 431.485-21 411.732-21h-53.649c-19.754 0-35.767 16.013-35.767 35.766z"/>
            <path d="M322.316 247.156c0 15.981 19.322 23.984 30.622 12.684l35.621-35.621c11.3-11.3 3.297-30.622-12.684-30.622h-35.621c-9.907 0-17.938 8.031-17.938 17.938v35.621zM536.91-3.026c0-15.981-19.321-23.984-30.622-12.684l-35.62 35.62c-11.301 11.3-3.297 30.622 12.684 30.622h35.62c9.907 0 17.938-8.03 17.938-17.937V-3.026z"/>
            <path opacity=".2" d="M465.379 157.74c0 15.981 19.322 23.985 30.622 12.684l35.62-35.62c11.301-11.301 3.297-30.622-12.683-30.622h-35.621c-9.907 0-17.938 8.031-17.938 17.938v35.62z"/>
            <path d="M304.431 139.948c0-19.753-16.013-35.766-35.766-35.766-19.753 0-35.767 16.013-35.767 35.766 0 19.753 16.014 35.766 35.767 35.766 19.753 0 35.766-16.013 35.766-35.766z"/>
            <path opacity=".5" d="M447.497 104.182c-19.753 0-35.767 16.013-35.767 35.766 0 19.753 16.014 35.766 35.767 35.766v-71.532z"/>
            <path opacity=".2" fill-rule="evenodd" clip-rule="evenodd" d="M333.909 172.097a2.752 2.752 0 01-3.856 0l-5.808-5.667-1.929 2.041 5.809 5.667a5.504 5.504 0 007.712 0l2.916-2.845a2.753 2.753 0 013.857 0l2.916 2.845a5.504 5.504 0 007.712 0l2.916-2.845a2.753 2.753 0 013.857 0l2.916 2.845a5.504 5.504 0 007.712 0l2.917-2.845a2.752 2.752 0 013.856 0l2.916 2.845a5.504 5.504 0 007.712 0l5.809-5.667-1.928-2.041-5.809 5.667a2.752 2.752 0 01-3.856 0l-2.916-2.846a5.505 5.505 0 00-7.713 0l-2.916 2.846a2.752 2.752 0 01-3.856 0l-2.916-2.846a5.505 5.505 0 00-7.713 0l-2.916 2.846a2.752 2.752 0 01-3.856 0l-2.916-2.846a5.505 5.505 0 00-7.713 0l-2.916 2.846zm0-15.562a2.752 2.752 0 01-3.856 0l-5.808-5.667-1.929 2.041 5.809 5.667a5.504 5.504 0 007.712 0l2.916-2.845a2.753 2.753 0 013.857 0l2.916 2.845a5.504 5.504 0 007.712 0l2.916-2.845a2.753 2.753 0 013.857 0l2.916 2.845a5.504 5.504 0 007.712 0l2.917-2.845a2.752 2.752 0 013.856 0l2.916 2.845a5.504 5.504 0 007.712 0l5.809-5.667-1.928-2.041-5.809 5.667a2.752 2.752 0 01-3.856 0l-2.916-2.845a5.503 5.503 0 00-7.713 0l-2.916 2.845a2.752 2.752 0 01-3.856 0l-2.916-2.845a5.503 5.503 0 00-7.713 0l-2.916 2.845a2.752 2.752 0 01-3.856 0l-2.916-2.845a5.503 5.503 0 00-7.713 0l-2.916 2.845zm-3.856-15.562a2.752 2.752 0 003.856 0l2.916-2.845a5.503 5.503 0 017.713 0l2.916 2.845a2.752 2.752 0 003.856 0l2.916-2.845a5.503 5.503 0 017.713 0l2.916 2.845a2.752 2.752 0 003.856 0l2.916-2.845a5.503 5.503 0 017.713 0l2.916 2.845a2.752 2.752 0 003.856 0l5.809-5.667 1.928 2.041-5.809 5.667a5.504 5.504 0 01-7.712 0l-2.916-2.845a2.752 2.752 0 00-3.856 0l-2.917 2.845a5.504 5.504 0 01-7.712 0l-2.916-2.845a2.753 2.753 0 00-3.857 0l-2.916 2.845a5.504 5.504 0 01-7.712 0l-2.916-2.845a2.753 2.753 0 00-3.857 0l-2.916 2.845a5.504 5.504 0 01-7.712 0l-5.809-5.667 1.929-2.041 5.808 5.667zm3.856-15.562a2.752 2.752 0 01-3.856 0l-5.808-5.667-1.929 2.041 5.809 5.667a5.504 5.504 0 007.712 0l2.916-2.845a2.753 2.753 0 013.857 0l2.916 2.845a5.504 5.504 0 007.712 0l2.916-2.845a2.753 2.753 0 013.857 0l2.916 2.845a5.504 5.504 0 007.712 0l2.917-2.845a2.752 2.752 0 013.856 0l2.916 2.845a5.504 5.504 0 007.712 0l5.809-5.667-1.928-2.041-5.809 5.667a2.752 2.752 0 01-3.856 0l-2.916-2.845a5.503 5.503 0 00-7.713 0l-2.916 2.845a2.752 2.752 0 01-3.856 0l-2.916-2.845a5.503 5.503 0 00-7.713 0l-2.916 2.845a2.752 2.752 0 01-3.856 0l-2.916-2.845a5.503 5.503 0 00-7.713 0l-2.916 2.845zm-3.856-15.562a2.752 2.752 0 003.856 0l2.916-2.845a5.503 5.503 0 017.713 0l2.916 2.845a2.752 2.752 0 003.856 0l2.916-2.845a5.503 5.503 0 017.713 0l2.916 2.845a2.752 2.752 0 003.856 0l2.916-2.845a5.503 5.503 0 017.713 0l2.916 2.845a2.752 2.752 0 003.856 0l5.809-5.667 1.928 2.041-5.809 5.667a5.504 5.504 0 01-7.712 0l-2.916-2.845a2.752 2.752 0 00-3.856 0l-2.917 2.845a5.504 5.504 0 01-7.712 0l-2.916-2.845a2.753 2.753 0 00-3.857 0l-2.916 2.845a5.504 5.504 0 01-7.712 0l-2.916-2.845a2.753 2.753 0 00-3.857 0l-2.916 2.845a5.504 5.504 0 01-7.712 0l-5.809-5.667 1.929-2.041 5.808 5.667z"/>
            <path fill-rule="evenodd" clip-rule="evenodd" d="M244.491 46.915a2.752 2.752 0 01-3.856 0l-5.808-5.667-1.929 2.041 5.809 5.667a5.504 5.504 0 007.712 0l2.916-2.845a2.753 2.753 0 013.857 0l2.916 2.845a5.504 5.504 0 007.712 0l2.917-2.845a2.752 2.752 0 013.856 0l2.916 2.845a5.504 5.504 0 007.712 0l2.917-2.845a2.752 2.752 0 013.856 0l2.916 2.845a5.504 5.504 0 007.712 0l5.809-5.667-1.928-2.04-5.809 5.666a2.752 2.752 0 01-3.856 0l-2.916-2.845a5.505 5.505 0 00-7.713 0l-2.916 2.845a2.752 2.752 0 01-3.856 0l-2.916-2.845a5.505 5.505 0 00-7.713 0l-2.916 2.845a2.752 2.752 0 01-3.856 0l-2.916-2.845a5.505 5.505 0 00-7.713 0l-2.916 2.845zm0-15.562a2.752 2.752 0 01-3.856 0l-5.808-5.667-1.929 2.041 5.809 5.667a5.504 5.504 0 007.712 0l2.916-2.845a2.753 2.753 0 013.857 0l2.916 2.845a5.504 5.504 0 007.712 0l2.917-2.845a2.752 2.752 0 013.856 0l2.916 2.845a5.504 5.504 0 007.712 0l2.917-2.845a2.752 2.752 0 013.856 0l2.916 2.845a5.504 5.504 0 007.712 0l5.809-5.667-1.928-2.04-5.809 5.666a2.752 2.752 0 01-3.856 0l-2.916-2.845a5.505 5.505 0 00-7.713 0l-2.916 2.845a2.752 2.752 0 01-3.856 0l-2.916-2.845a5.505 5.505 0 00-7.713 0l-2.916 2.845a2.752 2.752 0 01-3.856 0l-2.916-2.845a5.505 5.505 0 00-7.713 0l-2.916 2.845zm-3.856-15.562a2.752 2.752 0 003.856 0l2.916-2.845a5.505 5.505 0 017.713 0l2.916 2.845a2.752 2.752 0 003.856 0l2.916-2.845a5.505 5.505 0 017.713 0l2.916 2.845a2.752 2.752 0 003.856 0l2.916-2.845a5.505 5.505 0 017.713 0l2.916 2.845a2.752 2.752 0 003.856 0l5.809-5.667 1.928 2.041-5.809 5.667a5.504 5.504 0 01-7.712 0l-2.916-2.845a2.752 2.752 0 00-3.856 0l-2.917 2.845a5.504 5.504 0 01-7.712 0l-2.916-2.845a2.752 2.752 0 00-3.856 0l-2.917 2.845a5.504 5.504 0 01-7.712 0l-2.916-2.845a2.753 2.753 0 00-3.857 0l-2.916 2.845a5.504 5.504 0 01-7.712 0l-5.809-5.667 1.929-2.04 5.808 5.666zM244.491.229a2.752 2.752 0 01-3.856 0l-5.808-5.667-1.929 2.041 5.809 5.667a5.504 5.504 0 007.712 0l2.916-2.845a2.753 2.753 0 013.857 0l2.916 2.845a5.504 5.504 0 007.712 0l2.917-2.845a2.752 2.752 0 013.856 0l2.916 2.845a5.504 5.504 0 007.712 0l2.917-2.845a2.752 2.752 0 013.856 0l2.916 2.845a5.504 5.504 0 007.712 0l5.809-5.667-1.928-2.04-5.809 5.666a2.752 2.752 0 01-3.856 0l-2.916-2.845a5.505 5.505 0 00-7.713 0L279.293.229a2.752 2.752 0 01-3.856 0l-2.916-2.845a5.505 5.505 0 00-7.713 0L261.892.229a2.752 2.752 0 01-3.856 0l-2.916-2.845a5.505 5.505 0 00-7.713 0L244.491.229zm-3.856-15.562a2.752 2.752 0 003.856 0l2.916-2.845a5.505 5.505 0 017.713 0l2.916 2.845a2.752 2.752 0 003.856 0l2.916-2.845a5.505 5.505 0 017.713 0l2.916 2.845a2.752 2.752 0 003.856 0l2.916-2.845a5.505 5.505 0 017.713 0l2.916 2.845a2.752 2.752 0 003.856 0L302.503-21l1.928 2.041-5.809 5.667a5.504 5.504 0 01-7.712 0l-2.916-2.845a2.752 2.752 0 00-3.856 0l-2.917 2.845a5.504 5.504 0 01-7.712 0l-2.916-2.845a2.752 2.752 0 00-3.856 0l-2.917 2.845a5.504 5.504 0 01-7.712 0l-2.916-2.845a2.753 2.753 0 00-3.857 0l-2.916 2.845a5.504 5.504 0 01-7.712 0l-5.809-5.667 1.929-2.04 5.808 5.666z"/>
        </g>
        <g opacity=".1">
            <path opacity=".5" d="M554.789 551.215c0 9.877 8.007 17.883 17.883 17.883h35.766c9.877 0 17.883-8.006 17.883-17.883v-35.766c0-9.877-8.006-17.883-17.883-17.883h-35.766c-9.876 0-17.883 8.006-17.883 17.883v35.766zM554.789 385.796a4.47 4.47 0 004.471 4.471h8.941a4.47 4.47 0 004.471-4.471v-8.941a4.47 4.47 0 00-4.471-4.471h-8.941a4.471 4.471 0 00-4.471 4.471v8.941zM590.555 385.796a4.47 4.47 0 004.47 4.471h8.942a4.47 4.47 0 004.471-4.471v-8.941a4.471 4.471 0 00-4.471-4.471h-8.942a4.47 4.47 0 00-4.47 4.471v8.941zM626.324 385.796a4.47 4.47 0 004.471 4.471h8.942a4.47 4.47 0 004.47-4.471v-8.941a4.47 4.47 0 00-4.47-4.471h-8.942a4.471 4.471 0 00-4.471 4.471v8.941zM662.086 385.796a4.47 4.47 0 004.471 4.471h8.941a4.47 4.47 0 004.471-4.471v-8.941a4.471 4.471 0 00-4.471-4.471h-8.941a4.471 4.471 0 00-4.471 4.471v8.941zM697.855 385.796a4.47 4.47 0 004.471 4.471h8.942a4.47 4.47 0 004.471-4.471v-8.941a4.471 4.471 0 00-4.471-4.471h-8.942a4.471 4.471 0 00-4.471 4.471v8.941zM733.621 385.796a4.47 4.47 0 004.471 4.471h8.941a4.47 4.47 0 004.471-4.471v-8.941a4.47 4.47 0 00-4.471-4.471h-8.941a4.471 4.471 0 00-4.471 4.471v8.941zM769.391 385.796a4.47 4.47 0 004.47 4.471h8.942a4.47 4.47 0 004.471-4.471v-8.941a4.471 4.471 0 00-4.471-4.471h-8.942a4.47 4.47 0 00-4.47 4.471v8.941zM805.156 385.796a4.47 4.47 0 004.471 4.471h8.942a4.47 4.47 0 004.47-4.471v-8.941a4.47 4.47 0 00-4.47-4.471h-8.942a4.471 4.471 0 00-4.471 4.471v8.941zM840.918 385.796a4.47 4.47 0 004.471 4.471h8.941a4.47 4.47 0 004.471-4.471v-8.941a4.471 4.471 0 00-4.471-4.471h-8.941a4.471 4.471 0 00-4.471 4.471v8.941z"/>
            <path opacity=".2" d="M733.621 533.332c0 19.753 16.013 35.766 35.766 35.766h53.65c19.753 0 35.766-16.013 35.766-35.766 0-19.753-16.013-35.766-35.766-35.766h-53.65c-19.753 0-35.766 16.013-35.766 35.766zM644.207 318.735c0 19.753 16.013 35.766 35.766 35.766h53.65c19.753 0 35.766-16.013 35.766-35.766 0-19.753-16.013-35.766-35.766-35.766h-53.65c-19.753 0-35.766 16.013-35.766 35.766z"/>
            <path d="M644.207 551.124c0 15.981 19.322 23.985 30.622 12.684l35.621-35.62c11.3-11.301 3.297-30.622-12.684-30.622h-35.621c-9.907 0-17.938 8.031-17.938 17.938v35.62zM858.805 300.942c0-15.981-19.322-23.984-30.622-12.684l-35.621 35.621c-11.3 11.3-3.297 30.622 12.684 30.622h35.621c9.907 0 17.938-8.031 17.938-17.938v-35.621z"/>
            <path opacity=".2" d="M787.27 461.709c0 15.981 19.321 23.984 30.621 12.684l35.621-35.621c11.3-11.3 3.297-30.622-12.684-30.622h-35.621c-9.906 0-17.937 8.031-17.937 17.938v35.621z"/>
            <path d="M626.321 443.917c0-19.753-16.013-35.767-35.766-35.767-19.753 0-35.766 16.014-35.766 35.767 0 19.753 16.013 35.766 35.766 35.766 19.753 0 35.766-16.013 35.766-35.766z"/>
            <path opacity=".5" d="M769.387 408.15c-19.753 0-35.766 16.014-35.766 35.767 0 19.753 16.013 35.766 35.766 35.766V408.15z"/>
            <path opacity=".2" fill-rule="evenodd" clip-rule="evenodd" d="M655.8 476.065a2.752 2.752 0 01-3.856 0l-5.809-5.667-1.928 2.042 5.808 5.666a5.505 5.505 0 007.713 0l2.916-2.845a2.752 2.752 0 013.856 0l2.916 2.845a5.505 5.505 0 007.713 0l2.916-2.845a2.752 2.752 0 013.856 0l2.917 2.845a5.504 5.504 0 007.712 0l2.916-2.845a2.752 2.752 0 013.856 0l2.917 2.845a5.504 5.504 0 007.712 0l5.808-5.666-1.928-2.042-5.808 5.667a2.752 2.752 0 01-3.856 0l-2.916-2.845a5.505 5.505 0 00-7.713 0l-2.916 2.845a2.752 2.752 0 01-3.856 0l-2.917-2.845a5.504 5.504 0 00-7.712 0l-2.916 2.845a2.752 2.752 0 01-3.856 0l-2.917-2.845a5.504 5.504 0 00-7.712 0l-2.916 2.845zm0-15.562a2.752 2.752 0 01-3.856 0l-5.809-5.667-1.928 2.042 5.808 5.666a5.505 5.505 0 007.713 0l2.916-2.845a2.752 2.752 0 013.856 0l2.916 2.845a5.505 5.505 0 007.713 0l2.916-2.845a2.752 2.752 0 013.856 0l2.917 2.845a5.504 5.504 0 007.712 0l2.916-2.845a2.752 2.752 0 013.856 0l2.917 2.845a5.504 5.504 0 007.712 0l5.808-5.666-1.928-2.042-5.808 5.667a2.752 2.752 0 01-3.856 0l-2.916-2.845a5.505 5.505 0 00-7.713 0l-2.916 2.845a2.752 2.752 0 01-3.856 0l-2.917-2.845a5.504 5.504 0 00-7.712 0l-2.916 2.845a2.752 2.752 0 01-3.856 0l-2.917-2.845a5.504 5.504 0 00-7.712 0l-2.916 2.845zm-3.856-15.562a2.752 2.752 0 003.856 0l2.916-2.845a5.504 5.504 0 017.712 0l2.917 2.845a2.752 2.752 0 003.856 0l2.916-2.845a5.504 5.504 0 017.712 0l2.917 2.845a2.752 2.752 0 003.856 0l2.916-2.845a5.505 5.505 0 017.713 0l2.916 2.845a2.752 2.752 0 003.856 0l5.808-5.667 1.928 2.042-5.808 5.666a5.504 5.504 0 01-7.712 0l-2.917-2.845a2.752 2.752 0 00-3.856 0l-2.916 2.845a5.504 5.504 0 01-7.712 0l-2.917-2.845a2.752 2.752 0 00-3.856 0l-2.916 2.845a5.505 5.505 0 01-7.713 0l-2.916-2.845a2.752 2.752 0 00-3.856 0l-2.916 2.845a5.505 5.505 0 01-7.713 0l-5.808-5.666 1.928-2.042 5.809 5.667zm3.856-15.562a2.752 2.752 0 01-3.856 0l-5.809-5.667-1.928 2.042 5.808 5.666a5.505 5.505 0 007.713 0l2.916-2.845a2.752 2.752 0 013.856 0l2.916 2.845a5.505 5.505 0 007.713 0l2.916-2.845a2.752 2.752 0 013.856 0l2.917 2.845a5.504 5.504 0 007.712 0l2.916-2.845a2.752 2.752 0 013.856 0l2.917 2.845a5.504 5.504 0 007.712 0l5.808-5.666-1.928-2.042-5.808 5.667a2.752 2.752 0 01-3.856 0l-2.916-2.845a5.505 5.505 0 00-7.713 0l-2.916 2.845a2.752 2.752 0 01-3.856 0l-2.917-2.845a5.504 5.504 0 00-7.712 0l-2.916 2.845a2.752 2.752 0 01-3.856 0l-2.917-2.845a5.504 5.504 0 00-7.712 0l-2.916 2.845zm-3.856-15.562a2.752 2.752 0 003.856 0l2.916-2.845a5.504 5.504 0 017.712 0l2.917 2.845a2.752 2.752 0 003.856 0l2.916-2.845a5.504 5.504 0 017.712 0l2.917 2.845a2.752 2.752 0 003.856 0l2.916-2.845a5.505 5.505 0 017.713 0l2.916 2.845a2.752 2.752 0 003.856 0l5.808-5.667 1.928 2.042-5.808 5.666a5.504 5.504 0 01-7.712 0l-2.917-2.845a2.752 2.752 0 00-3.856 0l-2.916 2.845a5.504 5.504 0 01-7.712 0l-2.917-2.845a2.752 2.752 0 00-3.856 0l-2.916 2.845a5.505 5.505 0 01-7.713 0l-2.916-2.845a2.752 2.752 0 00-3.856 0l-2.916 2.845a5.505 5.505 0 01-7.713 0l-5.808-5.666 1.928-2.042 5.809 5.667z"/>
            <path fill-rule="evenodd" clip-rule="evenodd" d="M566.382 350.883a2.752 2.752 0 01-3.856 0l-5.809-5.666-1.928 2.041 5.808 5.666a5.503 5.503 0 007.713 0l2.916-2.845a2.752 2.752 0 013.856 0l2.916 2.845a5.503 5.503 0 007.713 0l2.916-2.845a2.752 2.752 0 013.856 0l2.917 2.845a5.502 5.502 0 007.712 0l2.916-2.845a2.752 2.752 0 013.856 0l2.917 2.845a5.502 5.502 0 007.712 0l5.808-5.666-1.928-2.041-5.808 5.666a2.752 2.752 0 01-3.856 0l-2.916-2.845a5.505 5.505 0 00-7.713 0l-2.916 2.845a2.752 2.752 0 01-3.856 0l-2.916-2.845a5.505 5.505 0 00-7.713 0l-2.916 2.845a2.752 2.752 0 01-3.856 0l-2.917-2.845a5.504 5.504 0 00-7.712 0l-2.916 2.845zm0-15.562a2.752 2.752 0 01-3.856 0l-5.809-5.666-1.928 2.041 5.808 5.666a5.503 5.503 0 007.713 0l2.916-2.845a2.752 2.752 0 013.856 0l2.916 2.845a5.503 5.503 0 007.713 0l2.916-2.845a2.752 2.752 0 013.856 0l2.917 2.845a5.502 5.502 0 007.712 0l2.916-2.845a2.752 2.752 0 013.856 0l2.917 2.845a5.502 5.502 0 007.712 0l5.808-5.666-1.928-2.041-5.808 5.666a2.752 2.752 0 01-3.856 0l-2.916-2.845a5.505 5.505 0 00-7.713 0l-2.916 2.845a2.752 2.752 0 01-3.856 0l-2.916-2.845a5.505 5.505 0 00-7.713 0l-2.916 2.845a2.752 2.752 0 01-3.856 0l-2.917-2.845a5.504 5.504 0 00-7.712 0l-2.916 2.845zm-3.856-15.562a2.752 2.752 0 003.856 0l2.916-2.845a5.504 5.504 0 017.712 0l2.917 2.845a2.752 2.752 0 003.856 0l2.916-2.845a5.505 5.505 0 017.713 0l2.916 2.845a2.752 2.752 0 003.856 0l2.916-2.845a5.505 5.505 0 017.713 0l2.916 2.845a2.752 2.752 0 003.856 0l5.808-5.666 1.928 2.041-5.808 5.666a5.502 5.502 0 01-7.712 0l-2.917-2.845a2.752 2.752 0 00-3.856 0l-2.916 2.845a5.502 5.502 0 01-7.712 0l-2.917-2.845a2.752 2.752 0 00-3.856 0l-2.916 2.845a5.503 5.503 0 01-7.713 0l-2.916-2.845a2.752 2.752 0 00-3.856 0l-2.916 2.845a5.503 5.503 0 01-7.713 0l-5.808-5.666 1.928-2.041 5.809 5.666zm3.856-15.562a2.752 2.752 0 01-3.856 0l-5.809-5.666-1.928 2.041 5.808 5.666a5.503 5.503 0 007.713 0l2.916-2.845a2.752 2.752 0 013.856 0l2.916 2.845a5.503 5.503 0 007.713 0l2.916-2.845a2.752 2.752 0 013.856 0l2.917 2.845a5.502 5.502 0 007.712 0l2.916-2.845a2.752 2.752 0 013.856 0l2.917 2.845a5.502 5.502 0 007.712 0l5.808-5.666-1.928-2.041-5.808 5.666a2.752 2.752 0 01-3.856 0l-2.916-2.845a5.505 5.505 0 00-7.713 0l-2.916 2.845a2.752 2.752 0 01-3.856 0l-2.916-2.845a5.505 5.505 0 00-7.713 0l-2.916 2.845a2.752 2.752 0 01-3.856 0l-2.917-2.845a5.504 5.504 0 00-7.712 0l-2.916 2.845zm-3.856-15.562a2.752 2.752 0 003.856 0l2.916-2.845a5.504 5.504 0 017.712 0l2.917 2.845a2.752 2.752 0 003.856 0l2.916-2.845a5.505 5.505 0 017.713 0l2.916 2.845a2.752 2.752 0 003.856 0l2.916-2.845a5.505 5.505 0 017.713 0l2.916 2.845a2.752 2.752 0 003.856 0l5.808-5.666 1.928 2.041-5.808 5.666a5.502 5.502 0 01-7.712 0l-2.917-2.845a2.752 2.752 0 00-3.856 0l-2.916 2.845a5.502 5.502 0 01-7.712 0l-2.917-2.845a2.752 2.752 0 00-3.856 0l-2.916 2.845a5.503 5.503 0 01-7.713 0l-2.916-2.845a2.752 2.752 0 00-3.856 0l-2.916 2.845a5.503 5.503 0 01-7.713 0l-5.808-5.666 1.928-2.041 5.809 5.666z"/>
        </g>
        <g opacity=".1">
            <path opacity=".5" d="M1073.41 385.796c0 2.47-2.01 4.471-4.47 4.471h-8.95a4.47 4.47 0 01-4.47-4.471v-8.941c0-2.469 2-4.471 4.47-4.471h8.95c2.46 0 4.47 2.002 4.47 4.471v8.941zM1037.64 385.796c0 2.47-2 4.471-4.47 4.471h-8.95a4.476 4.476 0 01-4.47-4.471v-8.941a4.476 4.476 0 014.47-4.471h8.95a4.47 4.47 0 014.47 4.471v8.941zM1001.87 385.796a4.47 4.47 0 01-4.47 4.471h-8.941a4.47 4.47 0 01-4.471-4.471v-8.941a4.471 4.471 0 014.471-4.471h8.941a4.47 4.47 0 014.47 4.471v8.941zM966.102 385.796a4.47 4.47 0 01-4.471 4.471h-8.942a4.47 4.47 0 01-4.471-4.471v-8.941a4.471 4.471 0 014.471-4.471h8.942a4.471 4.471 0 014.471 4.471v8.941zM930.34 385.796a4.47 4.47 0 01-4.471 4.471h-8.941a4.47 4.47 0 01-4.471-4.471v-8.941a4.47 4.47 0 014.471-4.471h8.941a4.471 4.471 0 014.471 4.471v8.941zM894.574 385.796a4.47 4.47 0 01-4.471 4.471h-8.941a4.47 4.47 0 01-4.471-4.471v-8.941a4.471 4.471 0 014.471-4.471h8.941a4.47 4.47 0 014.471 4.471v8.941z"/>
            <path opacity=".2" d="M1001.87 533.332c0 19.753-16.012 35.766-35.765 35.766h-53.649c-19.754 0-35.767-16.013-35.767-35.766 0-19.753 16.013-35.766 35.767-35.766h53.649c19.753 0 35.765 16.013 35.765 35.766zM1091.29 318.735c0 19.753-16.02 35.766-35.77 35.766h-53.65c-19.753 0-35.767-16.013-35.767-35.766 0-19.753 16.014-35.766 35.767-35.766h53.65c19.75 0 35.77 16.013 35.77 35.766z"/>
            <path d="M1091.29 551.124c0 15.981-19.33 23.985-30.63 12.684l-35.62-35.62c-11.3-11.301-3.29-30.622 12.69-30.622h35.62c9.9 0 17.94 8.031 17.94 17.938v35.62zM876.691 300.942c0-15.981 19.322-23.984 30.622-12.684l35.621 35.621c11.3 11.3 3.297 30.622-12.684 30.622h-35.621c-9.907 0-17.938-8.031-17.938-17.938v-35.621z"/>
            <path opacity=".2" d="M948.223 461.709c0 15.981-19.322 23.984-30.622 12.684l-35.621-35.621c-11.3-11.3-3.297-30.622 12.684-30.622h35.621c9.907 0 17.938 8.031 17.938 17.938v35.621z"/>
            <path opacity=".5" d="M966.105 408.15c19.753 0 35.765 16.014 35.765 35.767 0 19.753-16.012 35.766-35.765 35.766V408.15z"/>
            <path opacity=".2" fill-rule="evenodd" clip-rule="evenodd" d="M1079.69 476.065a2.757 2.757 0 003.86 0l5.81-5.667 1.93 2.042-5.81 5.666a5.514 5.514 0 01-7.72 0l-2.91-2.845a2.757 2.757 0 00-3.86 0l-2.91 2.845a5.514 5.514 0 01-7.72 0l-2.91-2.845a2.757 2.757 0 00-3.86 0l-2.92 2.845a5.502 5.502 0 01-7.71 0l-2.91-2.845a2.757 2.757 0 00-3.86 0l-2.92 2.845a5.502 5.502 0 01-7.71 0l-5.81-5.666 1.93-2.042 5.81 5.667a2.757 2.757 0 003.86 0l2.91-2.845a5.502 5.502 0 017.71 0l2.92 2.845a2.757 2.757 0 003.86 0l2.91-2.845a5.514 5.514 0 017.72 0l2.91 2.845a2.757 2.757 0 003.86 0l2.91-2.845a5.514 5.514 0 017.72 0l2.91 2.845zm0-15.562a2.757 2.757 0 003.86 0l5.81-5.667 1.93 2.042-5.81 5.666a5.514 5.514 0 01-7.72 0l-2.91-2.845a2.757 2.757 0 00-3.86 0l-2.91 2.845a5.514 5.514 0 01-7.72 0l-2.91-2.845a2.757 2.757 0 00-3.86 0l-2.92 2.845a5.502 5.502 0 01-7.71 0l-2.91-2.845a2.757 2.757 0 00-3.86 0l-2.92 2.845a5.502 5.502 0 01-7.71 0l-5.81-5.666 1.93-2.042 5.81 5.667a2.757 2.757 0 003.86 0l2.91-2.845a5.502 5.502 0 017.71 0l2.92 2.845a2.757 2.757 0 003.86 0l2.91-2.845a5.514 5.514 0 017.72 0l2.91 2.845a2.757 2.757 0 003.86 0l2.91-2.845a5.514 5.514 0 017.72 0l2.91 2.845zm3.86-15.562a2.757 2.757 0 01-3.86 0l-2.91-2.845a5.514 5.514 0 00-7.72 0l-2.91 2.845a2.757 2.757 0 01-3.86 0l-2.91-2.845a5.514 5.514 0 00-7.72 0l-2.91 2.845a2.757 2.757 0 01-3.86 0l-2.92-2.845a5.502 5.502 0 00-7.71 0l-2.91 2.845a2.757 2.757 0 01-3.86 0l-5.81-5.667-1.93 2.042 5.81 5.666a5.502 5.502 0 007.71 0l2.92-2.845a2.757 2.757 0 013.86 0l2.91 2.845a5.502 5.502 0 007.71 0l2.92-2.845a2.757 2.757 0 013.86 0l2.91 2.845a5.514 5.514 0 007.72 0l2.91-2.845a2.757 2.757 0 013.86 0l2.91 2.845a5.514 5.514 0 007.72 0l5.81-5.666-1.93-2.042-5.81 5.667zm-3.86-15.562a2.757 2.757 0 003.86 0l5.81-5.667 1.93 2.042-5.81 5.666a5.514 5.514 0 01-7.72 0l-2.91-2.845a2.757 2.757 0 00-3.86 0l-2.91 2.845a5.514 5.514 0 01-7.72 0l-2.91-2.845a2.757 2.757 0 00-3.86 0l-2.92 2.845a5.502 5.502 0 01-7.71 0l-2.91-2.845a2.757 2.757 0 00-3.86 0l-2.92 2.845a5.502 5.502 0 01-7.71 0l-5.81-5.666 1.93-2.042 5.81 5.667a2.757 2.757 0 003.86 0l2.91-2.845a5.502 5.502 0 017.71 0l2.92 2.845a2.757 2.757 0 003.86 0l2.91-2.845a5.514 5.514 0 017.72 0l2.91 2.845a2.757 2.757 0 003.86 0l2.91-2.845a5.514 5.514 0 017.72 0l2.91 2.845zm3.86-15.562a2.757 2.757 0 01-3.86 0l-2.91-2.845a5.514 5.514 0 00-7.72 0l-2.91 2.845a2.757 2.757 0 01-3.86 0l-2.91-2.845a5.514 5.514 0 00-7.72 0l-2.91 2.845a2.757 2.757 0 01-3.86 0l-2.92-2.845a5.502 5.502 0 00-7.71 0l-2.91 2.845a2.757 2.757 0 01-3.86 0l-5.81-5.667-1.93 2.042 5.81 5.666a5.502 5.502 0 007.71 0l2.92-2.845a2.757 2.757 0 013.86 0l2.91 2.845a5.502 5.502 0 007.71 0l2.92-2.845a2.757 2.757 0 013.86 0l2.91 2.845a5.514 5.514 0 007.72 0l2.91-2.845a2.757 2.757 0 013.86 0l2.91 2.845a5.514 5.514 0 007.72 0l5.81-5.666-1.93-2.042-5.81 5.667z"/>
        </g>
        <g opacity=".1">
            <path opacity=".5" d="M-17.469 466.27a4.47 4.47 0 014.471-4.47h8.942a4.47 4.47 0 014.47 4.47v8.942a4.471 4.471 0 01-4.47 4.471h-8.942a4.471 4.471 0 01-4.47-4.471v-8.942zM18.297 466.27a4.47 4.47 0 014.47-4.47h8.942a4.47 4.47 0 014.471 4.47v8.942a4.471 4.471 0 01-4.47 4.471h-8.942a4.471 4.471 0 01-4.471-4.471v-8.942zM54.066 466.27a4.47 4.47 0 014.471-4.47h8.942a4.47 4.47 0 014.47 4.47v8.942a4.471 4.471 0 01-4.47 4.471h-8.942a4.471 4.471 0 01-4.47-4.471v-8.942zM89.832 466.27a4.47 4.47 0 014.47-4.47h8.942a4.47 4.47 0 014.471 4.47v8.942a4.47 4.47 0 01-4.471 4.471h-8.941a4.471 4.471 0 01-4.471-4.471v-8.942zM125.602 466.27a4.47 4.47 0 014.47-4.47h8.942a4.47 4.47 0 014.471 4.47v8.942a4.471 4.471 0 01-4.471 4.471h-8.942a4.47 4.47 0 01-4.47-4.471v-8.942zM161.363 466.27a4.47 4.47 0 014.471-4.47h8.942a4.47 4.47 0 014.47 4.47v8.942a4.47 4.47 0 01-4.47 4.471h-8.942a4.471 4.471 0 01-4.471-4.471v-8.942zM197.129 466.27a4.47 4.47 0 014.471-4.47h8.941a4.47 4.47 0 014.471 4.47v8.942a4.471 4.471 0 01-4.471 4.471H201.6a4.471 4.471 0 01-4.471-4.471v-8.942z"/>
            <path opacity=".2" d="M89.832 318.735c0-19.753 16.013-35.766 35.766-35.766h53.65c19.753 0 35.766 16.013 35.766 35.766 0 19.753-16.013 35.766-35.766 35.766h-53.65c-19.753 0-35.766-16.013-35.766-35.766zM.418 533.332c0-19.753 16.013-35.766 35.766-35.766h53.65c19.753 0 35.766 16.013 35.766 35.766 0 19.753-16.013 35.766-35.766 35.766h-53.65c-19.753 0-35.766-16.013-35.766-35.766z"/>
            <path d="M.418 300.942c0-15.98 19.322-23.984 30.622-12.684l35.62 35.621c11.3 11.3 3.297 30.622-12.683 30.622H18.356c-9.907 0-17.938-8.031-17.938-17.938v-35.621zM215.012 551.124c0 15.981-19.322 23.985-30.622 12.684l-35.621-35.62c-11.3-11.301-3.297-30.622 12.684-30.622h35.621c9.907 0 17.938 8.031 17.938 17.938v35.62z"/>
            <path opacity=".2" d="M143.48 390.358c0-15.981 19.322-23.984 30.622-12.684l35.621 35.621c11.3 11.3 3.297 30.621-12.684 30.621h-35.621c-9.906 0-17.938-8.031-17.938-17.937v-35.621z"/>
            <path opacity=".5" d="M125.598 443.916c-19.753 0-35.766-16.013-35.766-35.766 0-19.753 16.013-35.766 35.766-35.766v71.532z"/>
            <path opacity=".2" fill-rule="evenodd" clip-rule="evenodd" d="M12.01 376.002a2.752 2.752 0 00-3.856 0l-5.808 5.667-1.928-2.042 5.808-5.666a5.503 5.503 0 017.713 0l2.916 2.845a2.752 2.752 0 003.856 0l2.916-2.845a5.503 5.503 0 017.713 0l2.916 2.845a2.752 2.752 0 003.856 0l2.916-2.845a5.503 5.503 0 017.713 0l2.916 2.845a2.752 2.752 0 003.856 0l2.916-2.845a5.503 5.503 0 017.713 0l5.808 5.666-1.928 2.042-5.808-5.667a2.752 2.752 0 00-3.856 0l-2.916 2.845a5.505 5.505 0 01-7.713 0l-2.916-2.845a2.752 2.752 0 00-3.856 0l-2.917 2.845a5.505 5.505 0 01-7.712 0l-2.916-2.845a2.752 2.752 0 00-3.857 0l-2.916 2.845a5.505 5.505 0 01-7.712 0l-2.916-2.845zm0 15.562a2.752 2.752 0 00-3.856 0l-5.808 5.666-1.928-2.041 5.808-5.666a5.503 5.503 0 017.713 0l2.916 2.845a2.752 2.752 0 003.856 0l2.916-2.845a5.503 5.503 0 017.713 0l2.916 2.845a2.752 2.752 0 003.856 0l2.916-2.845a5.503 5.503 0 017.713 0l2.916 2.845a2.752 2.752 0 003.856 0l2.916-2.845a5.503 5.503 0 017.713 0l5.808 5.666-1.928 2.041-5.808-5.666a2.752 2.752 0 00-3.856 0l-2.916 2.845a5.505 5.505 0 01-7.713 0l-2.916-2.845a2.752 2.752 0 00-3.856 0l-2.917 2.845a5.505 5.505 0 01-7.712 0l-2.916-2.845a2.752 2.752 0 00-3.857 0l-2.916 2.845a5.505 5.505 0 01-7.712 0l-2.916-2.845zm-3.856 15.562a2.752 2.752 0 013.857 0l2.916 2.845a5.505 5.505 0 007.712 0l2.916-2.845a2.752 2.752 0 013.857 0l2.916 2.845a5.505 5.505 0 007.712 0l2.917-2.845a2.752 2.752 0 013.856 0l2.916 2.845a5.505 5.505 0 007.712 0l2.917-2.845a2.752 2.752 0 013.856 0l5.808 5.666 1.928-2.041-5.808-5.666a5.503 5.503 0 00-7.712 0l-2.917 2.845a2.752 2.752 0 01-3.856 0l-2.916-2.845a5.503 5.503 0 00-7.713 0l-2.916 2.845a2.752 2.752 0 01-3.856 0l-2.916-2.845a5.503 5.503 0 00-7.713 0l-2.916 2.845a2.752 2.752 0 01-3.856 0l-2.916-2.845a5.503 5.503 0 00-7.713 0l-5.808 5.666 1.928 2.041 5.808-5.666zm3.857 15.562a2.752 2.752 0 00-3.857 0l-5.808 5.666-1.928-2.041 5.808-5.666a5.503 5.503 0 017.713 0l2.916 2.845a2.752 2.752 0 003.856 0l2.916-2.845a5.503 5.503 0 017.713 0l2.916 2.845a2.752 2.752 0 003.856 0l2.916-2.845a5.503 5.503 0 017.713 0l2.916 2.845a2.752 2.752 0 003.856 0l2.916-2.845a5.503 5.503 0 017.713 0l5.808 5.666-1.928 2.041-5.808-5.666a2.752 2.752 0 00-3.856 0l-2.916 2.845a5.505 5.505 0 01-7.713 0l-2.916-2.845a2.752 2.752 0 00-3.856 0l-2.917 2.845a5.505 5.505 0 01-7.712 0l-2.916-2.845a2.752 2.752 0 00-3.857 0l-2.916 2.845a5.505 5.505 0 01-7.712 0l-2.916-2.845zM8.154 438.25a2.752 2.752 0 013.857 0l2.916 2.845a5.505 5.505 0 007.712 0l2.916-2.845a2.752 2.752 0 013.857 0l2.916 2.845a5.505 5.505 0 007.712 0l2.917-2.845a2.752 2.752 0 013.856 0l2.916 2.845a5.505 5.505 0 007.712 0l2.917-2.845a2.752 2.752 0 013.856 0l5.808 5.666 1.928-2.041-5.808-5.666a5.503 5.503 0 00-7.712 0l-2.917 2.845a2.752 2.752 0 01-3.856 0l-2.916-2.845a5.503 5.503 0 00-7.713 0l-2.916 2.845a2.752 2.752 0 01-3.856 0l-2.916-2.845a5.503 5.503 0 00-7.713 0l-2.916 2.845a2.752 2.752 0 01-3.856 0l-2.916-2.845a5.503 5.503 0 00-7.713 0l-5.808 5.666 1.928 2.041 5.808-5.666z"/>
        </g>
        <g opacity=".1">
            <path opacity=".5" d="M232.898 551.215c0 9.877 8.007 17.883 17.884 17.883h35.766c9.876 0 17.883-8.006 17.883-17.883v-35.766c0-9.877-8.007-17.883-17.883-17.883h-35.766c-9.877 0-17.884 8.006-17.884 17.883v35.766zM232.898 385.796a4.47 4.47 0 004.471 4.471h8.942a4.47 4.47 0 004.471-4.471v-8.941a4.471 4.471 0 00-4.471-4.471h-8.942a4.471 4.471 0 00-4.471 4.471v8.941zM268.664 385.796a4.47 4.47 0 004.471 4.471h8.941a4.47 4.47 0 004.471-4.471v-8.941a4.47 4.47 0 00-4.471-4.471h-8.941a4.471 4.471 0 00-4.471 4.471v8.941zM304.43 385.796a4.47 4.47 0 004.47 4.471h8.942a4.47 4.47 0 004.471-4.471v-8.941a4.471 4.471 0 00-4.471-4.471H308.9a4.47 4.47 0 00-4.47 4.471v8.941zM340.195 385.796a4.47 4.47 0 004.471 4.471h8.942a4.47 4.47 0 004.47-4.471v-8.941a4.47 4.47 0 00-4.47-4.471h-8.942a4.471 4.471 0 00-4.471 4.471v8.941zM375.965 385.796a4.47 4.47 0 004.471 4.471h8.941a4.47 4.47 0 004.471-4.471v-8.941a4.471 4.471 0 00-4.471-4.471h-8.941a4.47 4.47 0 00-4.471 4.471v8.941zM411.73 385.796a4.47 4.47 0 004.471 4.471h8.942a4.47 4.47 0 004.471-4.471v-8.941a4.471 4.471 0 00-4.471-4.471h-8.942a4.471 4.471 0 00-4.471 4.471v8.941zM447.5 385.796a4.47 4.47 0 004.471 4.471h8.941a4.47 4.47 0 004.471-4.471v-8.941a4.471 4.471 0 00-4.471-4.471h-8.941a4.471 4.471 0 00-4.471 4.471v8.941zM483.262 385.796a4.47 4.47 0 004.47 4.471h8.942a4.47 4.47 0 004.471-4.471v-8.941a4.471 4.471 0 00-4.471-4.471h-8.942a4.47 4.47 0 00-4.47 4.471v8.941zM519.027 385.796a4.47 4.47 0 004.471 4.471h8.942a4.47 4.47 0 004.47-4.471v-8.941a4.47 4.47 0 00-4.47-4.471h-8.942a4.471 4.471 0 00-4.471 4.471v8.941z"/>
            <path opacity=".2" d="M411.73 533.332c0 19.753 16.014 35.766 35.767 35.766h53.649c19.753 0 35.766-16.013 35.766-35.766 0-19.753-16.013-35.766-35.766-35.766h-53.649c-19.753 0-35.767 16.013-35.767 35.766zM322.316 318.735c0 19.753 16.013 35.766 35.767 35.766h53.649c19.753 0 35.766-16.013 35.766-35.766 0-19.753-16.013-35.766-35.766-35.766h-53.649c-19.754 0-35.767 16.013-35.767 35.766z"/>
            <path d="M322.316 551.124c0 15.981 19.322 23.985 30.622 12.684l35.621-35.62c11.3-11.301 3.297-30.622-12.684-30.622h-35.621c-9.907 0-17.938 8.031-17.938 17.938v35.62zM536.91 300.942c0-15.981-19.321-23.984-30.622-12.684l-35.62 35.621c-11.301 11.3-3.297 30.622 12.684 30.622h35.62c9.907 0 17.938-8.031 17.938-17.938v-35.621z"/>
            <path opacity=".2" d="M465.379 461.709c0 15.981 19.322 23.984 30.622 12.684l35.62-35.621c11.301-11.3 3.297-30.622-12.683-30.622h-35.621c-9.907 0-17.938 8.031-17.938 17.938v35.621z"/>
            <path d="M304.431 443.917c0-19.753-16.013-35.767-35.766-35.767-19.753 0-35.767 16.014-35.767 35.767 0 19.753 16.014 35.766 35.767 35.766 19.753 0 35.766-16.013 35.766-35.766z"/>
            <path opacity=".5" d="M447.497 408.15c-19.753 0-35.767 16.014-35.767 35.767 0 19.753 16.014 35.766 35.767 35.766V408.15z"/>
            <path opacity=".2" fill-rule="evenodd" clip-rule="evenodd" d="M333.909 476.065a2.752 2.752 0 01-3.856 0l-5.808-5.667-1.929 2.042 5.809 5.666a5.504 5.504 0 007.712 0l2.916-2.845a2.753 2.753 0 013.857 0l2.916 2.845a5.504 5.504 0 007.712 0l2.916-2.845a2.753 2.753 0 013.857 0l2.916 2.845a5.504 5.504 0 007.712 0l2.917-2.845a2.752 2.752 0 013.856 0l2.916 2.845a5.504 5.504 0 007.712 0l5.809-5.666-1.928-2.042-5.809 5.667a2.752 2.752 0 01-3.856 0l-2.916-2.845a5.505 5.505 0 00-7.713 0l-2.916 2.845a2.752 2.752 0 01-3.856 0l-2.916-2.845a5.505 5.505 0 00-7.713 0l-2.916 2.845a2.752 2.752 0 01-3.856 0l-2.916-2.845a5.505 5.505 0 00-7.713 0l-2.916 2.845zm0-15.562a2.752 2.752 0 01-3.856 0l-5.808-5.667-1.929 2.042 5.809 5.666a5.504 5.504 0 007.712 0l2.916-2.845a2.753 2.753 0 013.857 0l2.916 2.845a5.504 5.504 0 007.712 0l2.916-2.845a2.753 2.753 0 013.857 0l2.916 2.845a5.504 5.504 0 007.712 0l2.917-2.845a2.752 2.752 0 013.856 0l2.916 2.845a5.504 5.504 0 007.712 0l5.809-5.666-1.928-2.042-5.809 5.667a2.752 2.752 0 01-3.856 0l-2.916-2.845a5.505 5.505 0 00-7.713 0l-2.916 2.845a2.752 2.752 0 01-3.856 0l-2.916-2.845a5.505 5.505 0 00-7.713 0l-2.916 2.845a2.752 2.752 0 01-3.856 0l-2.916-2.845a5.505 5.505 0 00-7.713 0l-2.916 2.845zm-3.856-15.562a2.752 2.752 0 003.856 0l2.916-2.845a5.505 5.505 0 017.713 0l2.916 2.845a2.752 2.752 0 003.856 0l2.916-2.845a5.505 5.505 0 017.713 0l2.916 2.845a2.752 2.752 0 003.856 0l2.916-2.845a5.505 5.505 0 017.713 0l2.916 2.845a2.752 2.752 0 003.856 0l5.809-5.667 1.928 2.042-5.809 5.666a5.504 5.504 0 01-7.712 0l-2.916-2.845a2.752 2.752 0 00-3.856 0l-2.917 2.845a5.504 5.504 0 01-7.712 0l-2.916-2.845a2.753 2.753 0 00-3.857 0l-2.916 2.845a5.504 5.504 0 01-7.712 0l-2.916-2.845a2.753 2.753 0 00-3.857 0l-2.916 2.845a5.504 5.504 0 01-7.712 0l-5.809-5.666 1.929-2.042 5.808 5.667zm3.856-15.562a2.752 2.752 0 01-3.856 0l-5.808-5.667-1.929 2.042 5.809 5.666a5.504 5.504 0 007.712 0l2.916-2.845a2.753 2.753 0 013.857 0l2.916 2.845a5.504 5.504 0 007.712 0l2.916-2.845a2.753 2.753 0 013.857 0l2.916 2.845a5.504 5.504 0 007.712 0l2.917-2.845a2.752 2.752 0 013.856 0l2.916 2.845a5.504 5.504 0 007.712 0l5.809-5.666-1.928-2.042-5.809 5.667a2.752 2.752 0 01-3.856 0l-2.916-2.845a5.505 5.505 0 00-7.713 0l-2.916 2.845a2.752 2.752 0 01-3.856 0l-2.916-2.845a5.505 5.505 0 00-7.713 0l-2.916 2.845a2.752 2.752 0 01-3.856 0l-2.916-2.845a5.505 5.505 0 00-7.713 0l-2.916 2.845zm-3.856-15.562a2.752 2.752 0 003.856 0l2.916-2.845a5.505 5.505 0 017.713 0l2.916 2.845a2.752 2.752 0 003.856 0l2.916-2.845a5.505 5.505 0 017.713 0l2.916 2.845a2.752 2.752 0 003.856 0l2.916-2.845a5.505 5.505 0 017.713 0l2.916 2.845a2.752 2.752 0 003.856 0l5.809-5.667 1.928 2.042-5.809 5.666a5.504 5.504 0 01-7.712 0l-2.916-2.845a2.752 2.752 0 00-3.856 0l-2.917 2.845a5.504 5.504 0 01-7.712 0l-2.916-2.845a2.753 2.753 0 00-3.857 0l-2.916 2.845a5.504 5.504 0 01-7.712 0l-2.916-2.845a2.753 2.753 0 00-3.857 0l-2.916 2.845a5.504 5.504 0 01-7.712 0l-5.809-5.666 1.929-2.042 5.808 5.667z"/>
            <path fill-rule="evenodd" clip-rule="evenodd" d="M244.491 350.883a2.752 2.752 0 01-3.856 0l-5.808-5.666-1.929 2.041 5.809 5.666a5.502 5.502 0 007.712 0l2.916-2.845a2.753 2.753 0 013.857 0l2.916 2.845a5.502 5.502 0 007.712 0l2.917-2.845a2.752 2.752 0 013.856 0l2.916 2.845a5.502 5.502 0 007.712 0l2.917-2.845a2.752 2.752 0 013.856 0l2.916 2.845a5.502 5.502 0 007.712 0l5.809-5.666-1.928-2.041-5.809 5.666a2.752 2.752 0 01-3.856 0l-2.916-2.845a5.505 5.505 0 00-7.713 0l-2.916 2.845a2.752 2.752 0 01-3.856 0l-2.916-2.845a5.505 5.505 0 00-7.713 0l-2.916 2.845a2.752 2.752 0 01-3.856 0l-2.916-2.845a5.505 5.505 0 00-7.713 0l-2.916 2.845zm0-15.562a2.752 2.752 0 01-3.856 0l-5.808-5.666-1.929 2.041 5.809 5.666a5.502 5.502 0 007.712 0l2.916-2.845a2.753 2.753 0 013.857 0l2.916 2.845a5.502 5.502 0 007.712 0l2.917-2.845a2.752 2.752 0 013.856 0l2.916 2.845a5.502 5.502 0 007.712 0l2.917-2.845a2.752 2.752 0 013.856 0l2.916 2.845a5.502 5.502 0 007.712 0l5.809-5.666-1.928-2.041-5.809 5.666a2.752 2.752 0 01-3.856 0l-2.916-2.845a5.505 5.505 0 00-7.713 0l-2.916 2.845a2.752 2.752 0 01-3.856 0l-2.916-2.845a5.505 5.505 0 00-7.713 0l-2.916 2.845a2.752 2.752 0 01-3.856 0l-2.916-2.845a5.505 5.505 0 00-7.713 0l-2.916 2.845zm-3.856-15.562a2.752 2.752 0 003.856 0l2.916-2.845a5.505 5.505 0 017.713 0l2.916 2.845a2.752 2.752 0 003.856 0l2.916-2.845a5.505 5.505 0 017.713 0l2.916 2.845a2.752 2.752 0 003.856 0l2.916-2.845a5.505 5.505 0 017.713 0l2.916 2.845a2.752 2.752 0 003.856 0l5.809-5.666 1.928 2.041-5.809 5.666a5.502 5.502 0 01-7.712 0l-2.916-2.845a2.752 2.752 0 00-3.856 0l-2.917 2.845a5.502 5.502 0 01-7.712 0l-2.916-2.845a2.752 2.752 0 00-3.856 0l-2.917 2.845a5.502 5.502 0 01-7.712 0l-2.916-2.845a2.753 2.753 0 00-3.857 0l-2.916 2.845a5.502 5.502 0 01-7.712 0l-5.809-5.666 1.929-2.041 5.808 5.666zm3.856-15.562a2.752 2.752 0 01-3.856 0l-5.808-5.666-1.929 2.041 5.809 5.666a5.502 5.502 0 007.712 0l2.916-2.845a2.753 2.753 0 013.857 0l2.916 2.845a5.502 5.502 0 007.712 0l2.917-2.845a2.752 2.752 0 013.856 0l2.916 2.845a5.502 5.502 0 007.712 0l2.917-2.845a2.752 2.752 0 013.856 0l2.916 2.845a5.502 5.502 0 007.712 0l5.809-5.666-1.928-2.041-5.809 5.666a2.752 2.752 0 01-3.856 0l-2.916-2.845a5.505 5.505 0 00-7.713 0l-2.916 2.845a2.752 2.752 0 01-3.856 0l-2.916-2.845a5.505 5.505 0 00-7.713 0l-2.916 2.845a2.752 2.752 0 01-3.856 0l-2.916-2.845a5.505 5.505 0 00-7.713 0l-2.916 2.845zm-3.856-15.562a2.752 2.752 0 003.856 0l2.916-2.845a5.505 5.505 0 017.713 0l2.916 2.845a2.752 2.752 0 003.856 0l2.916-2.845a5.505 5.505 0 017.713 0l2.916 2.845a2.752 2.752 0 003.856 0l2.916-2.845a5.505 5.505 0 017.713 0l2.916 2.845a2.752 2.752 0 003.856 0l5.809-5.666 1.928 2.041-5.809 5.666a5.502 5.502 0 01-7.712 0l-2.916-2.845a2.752 2.752 0 00-3.856 0l-2.917 2.845a5.502 5.502 0 01-7.712 0l-2.916-2.845a2.752 2.752 0 00-3.856 0l-2.917 2.845a5.502 5.502 0 01-7.712 0l-2.916-2.845a2.753 2.753 0 00-3.857 0l-2.916 2.845a5.502 5.502 0 01-7.712 0l-5.809-5.666 1.929-2.041 5.808 5.666z"/>
        </g>
    </g>
</svg>
